EESchema Schematic File Version 4
EELAYER 30 0
EELAYER END
$Descr A4 11693 8268
encoding utf-8
Sheet 4 7
Title "Lemming Robo 2"
Date "2021-07-18"
Rev "21.0.1-dev"
Comp "Team14 GesbR"
Comment1 "by Karl Zeilhofer"
Comment2 ""
Comment3 ""
Comment4 ""
$EndDescr
Wire Wire Line
	5950 4750 6900 4750
Wire Wire Line
	6900 4750 6900 4600
Wire Wire Line
	5950 4650 5950 4750
$Comp
L Device:R R?
U 1 1 60CB920B
P 6900 4450
AR Path="/60CB920B" Ref="R?"  Part="1" 
AR Path="/603FCB6F/60CB920B" Ref="R?"  Part="1" 
AR Path="/60CB4F7A/60CB920B" Ref="R?"  Part="1" 
AR Path="/60CB1E03/60CB776D/60CB920B" Ref="R13"  Part="1" 
F 0 "R13" H 6970 4496 50  0000 L CNN
F 1 "3k3" H 6970 4405 50  0000 L CNN
F 2 "t14_standardSMD:R2012m" V 6830 4450 50  0001 C CNN
F 3 "" H 6900 4450 50  0001 C CNN
F 4 "C204416" H 6900 4450 50  0001 C CNN "DistOrderNr"
F 5 "LCSC" H 6900 4450 50  0001 C CNN "Distributor"
F 6 " RTT03472JTP" H 6900 4450 50  0001 C CNN "ManPartNr"
F 7 "RALEC" H 6900 4450 50  0001 C CNN "Manufacturer"
F 8 "4.7kΩ ±5% 0.1W ±100ppm/K" H 6900 4450 50  0001 C CNN "Notes"
F 9 "0.0015" H 6900 4450 50  0001 C CNN "PriceEUR"
F 10 "100" H 6900 4450 50  0001 C CNN "PriceForQty"
	1    6900 4450
	1    0    0    -1  
$EndComp
Wire Wire Line
	5950 3800 5950 3750
Wire Wire Line
	4850 3800 5950 3800
Wire Wire Line
	4850 4450 4850 3800
Wire Wire Line
	5000 4450 4850 4450
Wire Wire Line
	4650 3550 5000 3550
Wire Wire Line
	4650 4100 4650 3550
Wire Wire Line
	5950 4100 4650 4100
Wire Wire Line
	5950 4250 5950 4100
Wire Wire Line
	5300 4450 5650 4450
Wire Wire Line
	5300 3550 5650 3550
$Comp
L Device:R R?
U 1 1 60CB9222
P 5150 4450
AR Path="/60CB9222" Ref="R?"  Part="1" 
AR Path="/603FCB6F/60CB9222" Ref="R?"  Part="1" 
AR Path="/60CB4F7A/60CB9222" Ref="R?"  Part="1" 
AR Path="/60CB1E03/60CB776D/60CB9222" Ref="R12"  Part="1" 
F 0 "R12" V 4943 4450 50  0000 C CNN
F 1 "10k" V 5034 4450 50  0000 C CNN
F 2 "t14_standardSMD:R2012m" V 5080 4450 50  0001 C CNN
F 3 "" H 5150 4450 50  0001 C CNN
F 4 "C17414" H 5150 4450 50  0001 C CNN "DistOrderNr"
F 5 "LCSC" H 5150 4450 50  0001 C CNN "Distributor"
F 6 "RTT03103JTP" H 5150 4450 50  0001 C CNN "ManPartNr"
F 7 "RALEC" H 5150 4450 50  0001 C CNN "Manufacturer"
F 8 "10kΩ ±5% 0.1W ±100ppm/℃" H 5150 4450 50  0001 C CNN "Notes"
F 9 "0.0015" H 5150 4450 50  0001 C CNN "PriceEUR"
F 10 "100" H 5150 4450 50  0001 C CNN "PriceForQty"
	1    5150 4450
	0    1    1    0   
$EndComp
$Comp
L Device:Q_NPN_BEC Q?
U 1 1 60CB922F
P 5850 4450
AR Path="/60CB922F" Ref="Q?"  Part="1" 
AR Path="/603FCB6F/60CB922F" Ref="Q?"  Part="1" 
AR Path="/60CB4F7A/60CB922F" Ref="Q?"  Part="1" 
AR Path="/60CB1E03/60CB776D/60CB922F" Ref="Q2"  Part="1" 
F 0 "Q2" H 6041 4496 50  0000 L CNN
F 1 "PMBT3904,215" H 6041 4405 50  0000 L CNN
F 2 "t14_standardSMD:SOT-23" H 6050 4550 50  0001 C CNN
F 3 "~" H 5850 4450 50  0001 C CNN
F 4 "C8667" H 5850 4450 50  0001 C CNN "DistOrderNr"
F 5 "LCSC" H 5850 4450 50  0001 C CNN "Distributor"
F 6 "PMBT3904,215" H 5850 4450 50  0001 C CNN "ManPartNr"
F 7 "Nexperia" H 5850 4450 50  0001 C CNN "Manufacturer"
F 8 "NPN 200mA 40V 250mW SOT-23" H 5850 4450 50  0001 C CNN "Notes"
F 9 "0.0109" H 5850 4450 50  0001 C CNN "PriceEUR"
F 10 "50" H 5850 4450 50  0001 C CNN "PriceForQty"
	1    5850 4450
	1    0    0    1   
$EndComp
$Comp
L Device:Q_NPN_BEC Q?
U 1 1 60CB923C
P 5850 3550
AR Path="/60CB923C" Ref="Q?"  Part="1" 
AR Path="/603FCB6F/60CB923C" Ref="Q?"  Part="1" 
AR Path="/60CB4F7A/60CB923C" Ref="Q?"  Part="1" 
AR Path="/60CB1E03/60CB776D/60CB923C" Ref="Q1"  Part="1" 
F 0 "Q1" H 6041 3596 50  0000 L CNN
F 1 "PMBT3904,215" H 6041 3505 50  0000 L CNN
F 2 "t14_standardSMD:SOT-23" H 6050 3650 50  0001 C CNN
F 3 "~" H 5850 3550 50  0001 C CNN
F 4 "C8667" H 5850 3550 50  0001 C CNN "DistOrderNr"
F 5 "LCSC" H 5850 3550 50  0001 C CNN "Distributor"
F 6 "PMBT3904,215" H 5850 3550 50  0001 C CNN "ManPartNr"
F 7 "Nexperia" H 5850 3550 50  0001 C CNN "Manufacturer"
F 8 "NPN 200mA 40V 250mW SOT-23" H 5850 3550 50  0001 C CNN "Notes"
F 9 "0.0109" H 5850 3550 50  0001 C CNN "PriceEUR"
F 10 "50" H 5850 3550 50  0001 C CNN "PriceForQty"
	1    5850 3550
	1    0    0    -1  
$EndComp
Text HLabel 7200 3350 2    50   Output ~ 0
~RESET
Text HLabel 7200 4750 2    50   Output ~ 0
GPIO0
Text HLabel 4250 3550 0    50   Input ~ 0
~DTR
Text HLabel 4250 4450 0    50   Input ~ 0
~RTS
$Comp
L Device:R R?
U 1 1 60CB924D
P 5150 3550
AR Path="/60CB924D" Ref="R?"  Part="1" 
AR Path="/603FCB6F/60CB924D" Ref="R?"  Part="1" 
AR Path="/60CB4F7A/60CB924D" Ref="R?"  Part="1" 
AR Path="/60CB1E03/60CB776D/60CB924D" Ref="R11"  Part="1" 
F 0 "R11" V 4943 3550 50  0000 C CNN
F 1 "10k" V 5034 3550 50  0000 C CNN
F 2 "t14_standardSMD:R2012m" V 5080 3550 50  0001 C CNN
F 3 "" H 5150 3550 50  0001 C CNN
F 4 "C17414" H 5150 3550 50  0001 C CNN "DistOrderNr"
F 5 "LCSC" H 5150 3550 50  0001 C CNN "Distributor"
F 6 "RTT03103JTP" H 5150 3550 50  0001 C CNN "ManPartNr"
F 7 "RALEC" H 5150 3550 50  0001 C CNN "Manufacturer"
F 8 "10kΩ ±5% 0.1W ±100ppm/℃" H 5150 3550 50  0001 C CNN "Notes"
F 9 "0.0015" H 5150 3550 50  0001 C CNN "PriceEUR"
F 10 "100" H 5150 3550 50  0001 C CNN "PriceForQty"
	1    5150 3550
	0    1    1    0   
$EndComp
Wire Wire Line
	7200 4750 6900 4750
Connection ~ 6900 4750
Wire Wire Line
	4250 4450 4850 4450
Connection ~ 4850 4450
Wire Wire Line
	4250 3550 4650 3550
Connection ~ 4650 3550
Wire Wire Line
	7200 3350 5950 3350
Text Notes 4500 2900 0    50   ~ 0
Wahrheitstabelle:\n\nDTR  RTS  |  RST  GPIO0\n---------------\nLO   LO   |  HIZ  HI\nLO   HI    |  HIZ  LO\nHI   LO    |  LO   HI\nHI   HI    |  HI   HI
Text HLabel 6750 3900 0    50   Input ~ 0
3V3
Wire Wire Line
	6750 3900 6900 3900
Wire Wire Line
	6900 3900 6900 4300
$EndSCHEMATC
