EESchema Schematic File Version 4
EELAYER 30 0
EELAYER END
$Descr A4 11693 8268
encoding utf-8
Sheet 1 7
Title "Lemming Robo 2"
Date "2021-07-18"
Rev "21.0.1-dev"
Comp "Team14 GesbR"
Comment1 "by Karl Zeilhofer"
Comment2 ""
Comment3 ""
Comment4 ""
$EndDescr
Text Notes 600  7350 0    50   ~ 0
Schrauben für Motoren: M3x8 Senkkopf\n
Text Notes 650  7600 0    50   ~ 0
3D Druck: Makita, Hofer, Einhell\n
$Sheet
S 4200 1350 1550 4300
U 60CB1E03
F0 "Mikrocontroller" 50
F1 "esp32.sch" 50
F2 "3V3" O R 5750 1500 50 
F3 "~MotorEnable" O R 5750 4000 50 
F4 "L_Step" O R 5750 2850 50 
F5 "R_Step" O R 5750 3050 50 
F6 "L_Dir" O R 5750 2950 50 
F7 "R_Dir" O R 5750 3150 50 
F8 "MicroStep1" O R 5750 3400 50 
F9 "MicroStep2" O R 5750 3500 50 
F10 "MicroStep3" O R 5750 3600 50 
F11 "SCL" B R 5750 4900 50 
F12 "SDA" B R 5750 4800 50 
F13 "Buzzer" O R 5750 2200 50 
F14 "~MotorSleep" O R 5750 3900 50 
F15 "5V" I L 4200 1850 50 
F16 "~MotorReset" O R 5750 3800 50 
F17 "ADC_Bat" I L 4200 2050 50 
F18 "~Taster" I L 4200 2150 50 
F19 "Selbsthaltung" O L 4200 2350 50 
F20 "R_Trig" O L 4200 4800 50 
F21 "L_Trig" O L 4200 3750 50 
F22 "R_Echo" I L 4200 4700 50 
F23 "L_Echo" I L 4200 3650 50 
$EndSheet
$Sheet
S 8100 2400 850  1750
U 60CB434E
F0 "Schrittmotor" 50
F1 "schrittmotor.sch" 50
F2 "~Enable" I L 8100 4000 50 
F3 "L_Step" I L 8100 2850 50 
F4 "L_Dir" I L 8100 2950 50 
F5 "R_Step" I L 8100 3050 50 
F6 "R_Dir" I L 8100 3150 50 
F7 "MicroStep1" I L 8100 3400 50 
F8 "MicroStep2" I L 8100 3500 50 
F9 "MicroStep3" I L 8100 3600 50 
F10 "~Reset" I L 8100 3800 50 
F11 "~Sleep" I L 8100 3900 50 
F12 "3V3" I L 8100 2600 50 
F13 "V_Batt" I L 8100 2500 50 
$EndSheet
$Comp
L htl_modules:OLED-128x32-Module U1
U 1 1 60CE2EF3
P 8950 4900
F 0 "U1" H 8950 5287 60  0000 C CNN
F 1 "OLED-128x32-Module" H 8950 5181 60  0000 C CNN
F 2 "htl_modules:OLED-128x32" H 8150 4450 60  0001 C CNN
F 3 "" H 8150 4450 60  0001 C CNN
F 4 "AliExpress" H 8950 4900 50  0001 C CNN "Distributor"
	1    8950 4900
	1    0    0    -1  
$EndComp
Text Notes 9100 5250 0    50   ~ 0
I2C Adresse: 0x3C
$Sheet
S 1050 1650 1050 850 
U 60CF3D45
F0 "Stromversorgung" 50
F1 "power-supply.sch" 50
F2 "Selbsthaltung" I R 2100 2350 50 
F3 "~Taster" O R 2100 2150 50 
F4 "5V" O R 2100 1850 50 
F5 "BattMessung" O R 2100 2050 50 
F6 "BAT+_Switched" O R 2100 1750 50 
F7 "3V3" I R 2100 1950 50 
$EndSheet
Wire Wire Line
	8000 5600 7800 5600
Wire Wire Line
	7800 5600 7800 6100
Wire Wire Line
	8000 6100 7800 6100
Connection ~ 7800 6100
Wire Wire Line
	7800 6100 7800 6350
NoConn ~ 8000 6200
Wire Wire Line
	7350 5500 8000 5500
Wire Wire Line
	8100 2600 7350 2600
Connection ~ 7350 2600
Wire Wire Line
	7350 2600 7350 4350
Wire Wire Line
	7450 800  7450 2500
Wire Wire Line
	7450 2500 8100 2500
Text Notes 2200 7700 0    50   ~ 0
Hardware kompatibel mit \nESP32 WiFi Balancing Robot\nhttps://github.com/bluino/esp32_wifi_balancing_robot
Wire Wire Line
	5750 4000 8100 4000
Wire Wire Line
	5750 2850 8100 2850
Wire Wire Line
	5750 2950 8100 2950
Wire Wire Line
	5750 3050 8100 3050
Wire Wire Line
	5750 3150 8100 3150
Wire Wire Line
	5750 3400 8100 3400
Wire Wire Line
	5750 3500 8100 3500
Wire Wire Line
	5750 3600 8100 3600
$Comp
L power:GND #PWR07
U 1 1 60DCF745
P 7950 5200
F 0 "#PWR07" H 7950 4950 50  0001 C CNN
F 1 "GND" H 7955 5027 50  0000 C CNN
F 2 "" H 7950 5200 50  0001 C CNN
F 3 "" H 7950 5200 50  0001 C CNN
	1    7950 5200
	1    0    0    -1  
$EndComp
Wire Wire Line
	7950 5200 7950 5100
Wire Wire Line
	7950 5100 8200 5100
$Comp
L Device:R R6
U 1 1 60DD007D
P 6750 4600
F 0 "R6" H 6820 4646 50  0000 L CNN
F 1 "3k3" H 6820 4555 50  0000 L CNN
F 2 "t14_standardSMD:R2012m" V 6680 4600 50  0001 C CNN
F 3 "~" H 6750 4600 50  0001 C CNN
F 4 "C204416" H 6750 4600 50  0001 C CNN "DistOrderNr"
	1    6750 4600
	1    0    0    -1  
$EndComp
$Comp
L Device:R R7
U 1 1 60DD088C
P 7050 4600
F 0 "R7" H 6980 4554 50  0000 R CNN
F 1 "3k3" H 6980 4645 50  0000 R CNN
F 2 "t14_standardSMD:R2012m" V 6980 4600 50  0001 C CNN
F 3 "~" H 7050 4600 50  0001 C CNN
F 4 "C204416" H 7050 4600 50  0001 C CNN "DistOrderNr"
	1    7050 4600
	-1   0    0    1   
$EndComp
Wire Wire Line
	6200 5800 8000 5800
Wire Wire Line
	6300 5700 8000 5700
$Comp
L power:GND #PWR06
U 1 1 60DD580F
P 7800 6350
F 0 "#PWR06" H 7800 6100 50  0001 C CNN
F 1 "GND" H 7805 6177 50  0000 C CNN
F 2 "" H 7800 6350 50  0001 C CNN
F 3 "" H 7800 6350 50  0001 C CNN
	1    7800 6350
	1    0    0    -1  
$EndComp
$Comp
L Device:Speaker_Crystal LS?
U 1 1 60DD8307
P 6700 2200
AR Path="/60CB1E03/60DD8307" Ref="LS?"  Part="1" 
AR Path="/60DD8307" Ref="LS1"  Part="1" 
F 0 "LS1" H 6874 2196 50  0000 L CNN
F 1 "Piezo" H 6874 2105 50  0000 L CNN
F 2 "lemming2:Buzzer_12x9.5RM7.6" H 6665 2150 50  0001 C CNN
F 3 "~" H 6665 2150 50  0001 C CNN
F 4 "C360605" H 6700 2200 50  0001 C CNN "DistOrderNr"
	1    6700 2200
	1    0    0    -1  
$EndComp
Wire Wire Line
	6500 2200 6150 2200
$Comp
L power:GND #PWR05
U 1 1 60DD98D8
P 6450 2350
F 0 "#PWR05" H 6450 2100 50  0001 C CNN
F 1 "GND" H 6455 2177 50  0000 C CNN
F 2 "" H 6450 2350 50  0001 C CNN
F 3 "" H 6450 2350 50  0001 C CNN
	1    6450 2350
	1    0    0    -1  
$EndComp
Wire Wire Line
	6500 2300 6450 2300
Wire Wire Line
	6450 2300 6450 2350
$Comp
L Device:R R5
U 1 1 60DDAB24
P 6000 2200
F 0 "R5" V 5793 2200 50  0000 C CNN
F 1 "100R" V 5884 2200 50  0000 C CNN
F 2 "t14_standardSMD:R2012m" V 5930 2200 50  0001 C CNN
F 3 "~" H 6000 2200 50  0001 C CNN
F 4 "C115424" H 6000 2200 50  0001 C CNN "DistOrderNr"
F 5 "LCSC" H 6000 2200 50  0001 C CNN "Distributor"
	1    6000 2200
	0    1    1    0   
$EndComp
Wire Wire Line
	5850 2200 5750 2200
$Comp
L lemming2:MPU-6050_Module A3
U 1 1 60DC4301
P 8450 5900
F 0 "A3" H 8200 6450 50  0000 L CNN
F 1 "MPU-6050_Module" H 8200 5450 50  0000 L CNN
F 2 "htl_modules:MPU-6050_Module" H 8550 6050 50  0001 C CNN
F 3 "~" H 8550 6050 50  0001 C CNN
F 4 "Amazon" H 8450 5900 50  0001 C CNN "Distributor"
	1    8450 5900
	1    0    0    -1  
$EndComp
NoConn ~ 8000 6000
NoConn ~ 8000 5900
Wire Wire Line
	5750 3800 8100 3800
Wire Wire Line
	5750 3900 8100 3900
Wire Wire Line
	2100 1750 3050 1750
Wire Wire Line
	3050 1750 3050 800 
Wire Wire Line
	2100 1850 3500 1850
Wire Wire Line
	3050 800  7450 800 
Wire Wire Line
	2100 2050 4200 2050
Wire Wire Line
	2100 2150 4200 2150
Wire Wire Line
	2100 2350 4200 2350
$Comp
L htl_virtual:Item Item1
U 1 1 60DE8E09
P 750 6800
F 0 "Item1" H 880 6846 50  0000 L CNN
F 1 "PCB, 80x60x1.55, 2x 35um Cu, beidseitig Bestückungsdruck, HAL verzinnt" H 880 6755 50  0000 L CNN
F 2 "htl_virtual:Virtual-Item" H 750 6730 50  0001 C CNN
F 3 "~" V 750 6800 50  0001 C CNN
F 4 "MultiCB" H 750 6800 50  0001 C CNN "Distributor"
F 5 "virtual" H 750 6800 50  0001 C CNN "DistOrderNr"
	1    750  6800
	1    0    0    -1  
$EndComp
$Comp
L htl_virtual:Item Item2
U 1 1 60DE90DB
P 750 7000
F 0 "Item2" H 880 7046 50  0000 L CNN
F 1 "Stencil, 120um Edelstahl, 30mm umlaufender Rand" H 880 6955 50  0000 L CNN
F 2 "htl_virtual:Virtual-Item" H 750 6930 50  0001 C CNN
F 3 "~" V 750 7000 50  0001 C CNN
F 4 "MultiCB" H 750 7000 50  0001 C CNN "Distributor"
F 5 "virtual" H 750 7000 50  0001 C CNN "DistOrderNr"
	1    750  7000
	1    0    0    -1  
$EndComp
Wire Wire Line
	8200 5000 7350 5000
Connection ~ 7350 5000
Wire Wire Line
	7350 5000 7350 5500
Wire Wire Line
	5750 4800 6200 4800
Wire Wire Line
	8200 4900 7050 4900
Wire Wire Line
	6750 4450 6750 4350
Wire Wire Line
	6750 4350 7050 4350
Connection ~ 7350 4350
Wire Wire Line
	7350 4350 7350 5000
Wire Wire Line
	7050 4450 7050 4350
Connection ~ 7050 4350
Wire Wire Line
	7050 4350 7350 4350
Wire Wire Line
	6750 4750 6750 4800
Connection ~ 6750 4800
Wire Wire Line
	6750 4800 8200 4800
Wire Wire Line
	7050 4750 7050 4900
Connection ~ 7050 4900
Wire Wire Line
	7050 4900 6300 4900
Connection ~ 6200 4800
Wire Wire Line
	6200 4800 6200 5800
Wire Wire Line
	6200 4800 6750 4800
Connection ~ 6300 4900
Wire Wire Line
	6300 4900 6300 5700
Wire Wire Line
	6300 4900 5750 4900
Wire Wire Line
	5750 1500 6100 1500
Wire Wire Line
	7350 1500 7350 2600
$Comp
L lemming2:HC-SR04 A1
U 1 1 60D84BB2
P 2750 3750
F 0 "A1" H 2667 3135 50  0000 C CNN
F 1 "HC-SR04" H 2667 3226 50  0000 C CNN
F 2 "lemming2:HC-SR04" H 2250 3700 50  0001 C CNN
F 3 "" H 2250 3700 50  0001 C CNN
F 4 "eBay" H 2750 3750 50  0001 C CNN "Distributor"
	1    2750 3750
	-1   0    0    1   
$EndComp
$Comp
L lemming2:HC-SR04 A2
U 1 1 60D8627B
P 2750 4800
F 0 "A2" H 2667 4185 50  0000 C CNN
F 1 "HC-SR04" H 2667 4276 50  0000 C CNN
F 2 "lemming2:HC-SR04" H 2250 4750 50  0001 C CNN
F 3 "" H 2250 4750 50  0001 C CNN
F 4 "eBay" H 2750 4800 50  0001 C CNN "Distributor"
	1    2750 4800
	-1   0    0    1   
$EndComp
Wire Wire Line
	3500 1850 3500 3850
Wire Wire Line
	3500 3850 3200 3850
Connection ~ 3500 1850
Wire Wire Line
	3500 1850 4200 1850
Wire Wire Line
	3500 3850 3500 4900
Wire Wire Line
	3500 4900 3200 4900
Connection ~ 3500 3850
$Comp
L power:GND #PWR01
U 1 1 60D88EA0
P 3300 3500
F 0 "#PWR01" H 3300 3250 50  0001 C CNN
F 1 "GND" H 3305 3327 50  0000 C CNN
F 2 "" H 3300 3500 50  0001 C CNN
F 3 "" H 3300 3500 50  0001 C CNN
	1    3300 3500
	-1   0    0    1   
$EndComp
Wire Wire Line
	3300 3500 3300 3550
Wire Wire Line
	3300 3550 3200 3550
$Comp
L power:GND #PWR02
U 1 1 60D8A82C
P 3300 4500
F 0 "#PWR02" H 3300 4250 50  0001 C CNN
F 1 "GND" H 3305 4327 50  0000 C CNN
F 2 "" H 3300 4500 50  0001 C CNN
F 3 "" H 3300 4500 50  0001 C CNN
	1    3300 4500
	-1   0    0    1   
$EndComp
Wire Wire Line
	3300 4500 3300 4600
Wire Wire Line
	3300 4600 3200 4600
Text Notes 2150 3700 0    50   ~ 0
Links
Text Notes 2150 4750 0    50   ~ 0
Rechts
Wire Wire Line
	3200 3650 3550 3650
Wire Wire Line
	3200 3750 4200 3750
Wire Wire Line
	3200 4700 3550 4700
Wire Wire Line
	3200 4800 4200 4800
$Comp
L Device:R R2
U 1 1 60DA339A
P 3700 4700
F 0 "R2" V 3493 4700 50  0000 C CNN
F 1 "1k8" V 3584 4700 50  0000 C CNN
F 2 "t14_standardSMD:R2012m" V 3630 4700 50  0001 C CNN
F 3 "~" H 3700 4700 50  0001 C CNN
F 4 "C203809" H 3700 4700 50  0001 C CNN "DistOrderNr"
F 5 "LCSC" H 3700 4700 50  0001 C CNN "Distributor"
	1    3700 4700
	0    1    1    0   
$EndComp
Wire Wire Line
	3850 4700 3950 4700
$Comp
L Device:R R4
U 1 1 60DA3B19
P 3950 5050
F 0 "R4" H 4020 5096 50  0000 L CNN
F 1 "3k3" H 4020 5005 50  0000 L CNN
F 2 "t14_standardSMD:R2012m" V 3880 5050 50  0001 C CNN
F 3 "~" H 3950 5050 50  0001 C CNN
F 4 "C204416" H 3950 5050 50  0001 C CNN "DistOrderNr"
	1    3950 5050
	1    0    0    -1  
$EndComp
$Comp
L power:GND #PWR04
U 1 1 60DA3F54
P 3950 5300
F 0 "#PWR04" H 3950 5050 50  0001 C CNN
F 1 "GND" H 3955 5127 50  0000 C CNN
F 2 "" H 3950 5300 50  0001 C CNN
F 3 "" H 3950 5300 50  0001 C CNN
	1    3950 5300
	1    0    0    -1  
$EndComp
Wire Wire Line
	3950 5300 3950 5200
Wire Wire Line
	3950 4900 3950 4700
Connection ~ 3950 4700
Wire Wire Line
	3950 4700 4200 4700
$Comp
L Device:R R1
U 1 1 60DA65BC
P 3700 3650
F 0 "R1" V 3493 3650 50  0000 C CNN
F 1 "1k8" V 3584 3650 50  0000 C CNN
F 2 "t14_standardSMD:R2012m" V 3630 3650 50  0001 C CNN
F 3 "~" H 3700 3650 50  0001 C CNN
F 4 "C203809" H 3700 3650 50  0001 C CNN "DistOrderNr"
F 5 "LCSC" H 3700 3650 50  0001 C CNN "Distributor"
	1    3700 3650
	0    1    1    0   
$EndComp
Wire Wire Line
	3850 3650 3950 3650
$Comp
L Device:R R3
U 1 1 60DA720F
P 3950 4000
F 0 "R3" H 4020 4046 50  0000 L CNN
F 1 "3k3" H 4020 3955 50  0000 L CNN
F 2 "t14_standardSMD:R2012m" V 3880 4000 50  0001 C CNN
F 3 "~" H 3950 4000 50  0001 C CNN
F 4 "C204416" H 3950 4000 50  0001 C CNN "DistOrderNr"
	1    3950 4000
	1    0    0    -1  
$EndComp
$Comp
L power:GND #PWR03
U 1 1 60DA7215
P 3950 4250
F 0 "#PWR03" H 3950 4000 50  0001 C CNN
F 1 "GND" H 3955 4077 50  0000 C CNN
F 2 "" H 3950 4250 50  0001 C CNN
F 3 "" H 3950 4250 50  0001 C CNN
	1    3950 4250
	1    0    0    -1  
$EndComp
Wire Wire Line
	3950 4250 3950 4150
Wire Wire Line
	3950 3850 3950 3650
Connection ~ 3950 3650
Wire Wire Line
	3950 3650 4200 3650
$Comp
L htl_virtual:Item Item5
U 1 1 60EB0B03
P 10000 4900
F 0 "Item5" H 10130 4946 50  0000 L CNN
F 1 "Header 4x2.54" H 10130 4855 50  0000 L CNN
F 2 "htl_virtual:Virtual-Item" H 10000 4830 50  0001 C CNN
F 3 "~" V 10000 4900 50  0001 C CNN
F 4 "LCSC" H 10000 4900 50  0001 C CNN "Distributor"
F 5 "C225501" H 10000 4900 50  0001 C CNN "DistOrderNr"
	1    10000 4900
	1    0    0    -1  
$EndComp
Wire Wire Line
	2100 1950 3200 1950
Wire Wire Line
	3200 1950 3200 1100
Wire Wire Line
	3200 1100 6100 1100
Wire Wire Line
	6100 1100 6100 1500
Connection ~ 6100 1500
Wire Wire Line
	6100 1500 7350 1500
Text Notes 9900 750  0    50   ~ 0
Changelog since 21.0.0:\n* add R31: Reset Pullup 3k3
$EndSCHEMATC
