EESchema Schematic File Version 4
EELAYER 30 0
EELAYER END
$Descr A4 11693 8268
encoding utf-8
Sheet 6 7
Title "Lemming Robo 2"
Date "2021-07-18"
Rev "21.0.1-dev"
Comp "Team14 GesbR"
Comment1 "by Karl Zeilhofer"
Comment2 ""
Comment3 ""
Comment4 ""
$EndDescr
$Comp
L Switch:SW_Push SW1
U 1 1 6091012D
P 2800 3300
F 0 "SW1" V 2846 3252 50  0000 R CNN
F 1 "Ein/Aus" V 2755 3252 50  0000 R CNN
F 2 "htl_smd:SW_Push_5.1mm_H1.5mm" H 2800 3500 50  0001 C CNN
F 3 "~" H 2800 3500 50  0001 C CNN
F 4 "C318884" H 2800 3300 50  0001 C CNN "DistOrderNr"
F 5 "LCSC" H 2800 3300 50  0001 C CNN "Distributor"
F 6 "TS-1187A-B-A-B" H 2800 3300 50  0001 C CNN "ManPartNr"
F 7 "XKB Connectivity" H 2800 3300 50  0001 C CNN "Manufacturer"
F 8 "SPST 50mA @ 12VDC Vertical Round Button 160gf SMD Tactile Switches" H 2800 3300 50  0001 C CNN "Notes"
F 9 "0.01" H 2800 3300 50  0001 C CNN "PriceEUR"
F 10 "500" H 2800 3300 50  0001 C CNN "PriceForQty"
F 11 "https://lcsc.com/product-detail/Tactile-Switches_XKB-Connectivity-TS-1187A-B-A-B_C318884.html" H 2800 3300 50  0001 C CNN "Weblink"
	1    2800 3300
	0    -1   -1   0   
$EndComp
$Comp
L Device:R R16
U 1 1 60910786
P 2800 4550
F 0 "R16" H 2870 4596 50  0000 L CNN
F 1 "3k3" H 2870 4505 50  0000 L CNN
F 2 "t14_standardSMD:R2012m" V 2730 4550 50  0001 C CNN
F 3 "~" H 2800 4550 50  0001 C CNN
F 4 "0.01" H 2800 4550 50  0001 C CNN "PriceEUR"
F 5 "C204416" H 2800 4550 50  0001 C CNN "DistOrderNr"
F 6 "LCSC" H 2800 4550 50  0001 C CNN "Distributor"
	1    2800 4550
	1    0    0    -1  
$EndComp
$Comp
L Device:R R15
U 1 1 60910B4F
P 2450 5200
F 0 "R15" H 2520 5246 50  0000 L CNN
F 1 "10k" H 2520 5155 50  0000 L CNN
F 2 "t14_standardSMD:R2012m" V 2380 5200 50  0001 C CNN
F 3 "~" H 2450 5200 50  0001 C CNN
F 4 "0.01" H 2450 5200 50  0001 C CNN "PriceEUR"
F 5 "C17414" H 2450 5200 50  0001 C CNN "DistOrderNr"
F 6 "LCSC" H 2450 5200 50  0001 C CNN "Distributor"
	1    2450 5200
	1    0    0    -1  
$EndComp
$Comp
L Transistor_BJT:MMBT3904 Q4
U 1 1 60913552
P 3400 4850
F 0 "Q4" H 3591 4896 50  0000 L CNN
F 1 "PMBT3904,215" H 3100 4550 50  0000 L CNN
F 2 "t14_standardSMD:SOT-23" H 3600 4775 50  0001 L CIN
F 3 "https://www.fairchildsemi.com/datasheets/2N/2N3904.pdf" H 3400 4850 50  0001 L CNN
F 4 "C8667" H 3400 4850 50  0001 C CNN "DistOrderNr"
F 5 "LCSC" H 3400 4850 50  0001 C CNN "Distributor"
F 6 "0.0109" H 3400 4850 50  0001 C CNN "PriceEUR"
F 7 "50" H 3400 4850 50  0001 C CNN "PriceForQty"
F 8 "https://lcsc.com/product-detail/Transistors-NPN-PNP_KEXIN-MMBT3904_C382281.html" H 3400 4850 50  0001 C CNN "Weblink"
F 9 "PMBT3904,215" H 3400 4850 50  0001 C CNN "ManPartNr"
F 10 "Nexperia" H 3400 4850 50  0001 C CNN "Manufacturer"
F 11 "NPN 200mA 40V 250mW SOT-23" H 3400 4850 50  0001 C CNN "Notes"
	1    3400 4850
	1    0    0    -1  
$EndComp
$Comp
L Transistor_BJT:MMBT3904 Q5
U 1 1 6091430B
P 4150 4850
F 0 "Q5" H 4341 4896 50  0000 L CNN
F 1 "PMBT3904,215" H 3850 4550 50  0000 L CNN
F 2 "t14_standardSMD:SOT-23" H 4350 4775 50  0001 L CIN
F 3 "https://www.fairchildsemi.com/datasheets/2N/2N3904.pdf" H 4150 4850 50  0001 L CNN
F 4 "C8667" H 4150 4850 50  0001 C CNN "DistOrderNr"
F 5 "LCSC" H 4150 4850 50  0001 C CNN "Distributor"
F 6 "0.0109" H 4150 4850 50  0001 C CNN "PriceEUR"
F 7 "50" H 4150 4850 50  0001 C CNN "PriceForQty"
F 8 "https://lcsc.com/product-detail/Transistors-NPN-PNP_KEXIN-MMBT3904_C382281.html" H 4150 4850 50  0001 C CNN "Weblink"
F 9 "PMBT3904,215" H 4150 4850 50  0001 C CNN "ManPartNr"
F 10 "Nexperia" H 4150 4850 50  0001 C CNN "Manufacturer"
F 11 "NPN 200mA 40V 250mW SOT-23" H 4150 4850 50  0001 C CNN "Notes"
	1    4150 4850
	-1   0    0    -1  
$EndComp
$Comp
L Device:R R17
U 1 1 60918ACF
P 3750 2950
F 0 "R17" H 3820 2996 50  0000 L CNN
F 1 "10k" H 3820 2905 50  0000 L CNN
F 2 "t14_standardSMD:R2012m" V 3680 2950 50  0001 C CNN
F 3 "~" H 3750 2950 50  0001 C CNN
F 4 "0.01" H 3750 2950 50  0001 C CNN "PriceEUR"
F 5 "C17414" H 3750 2950 50  0001 C CNN "DistOrderNr"
F 6 "LCSC" H 3750 2950 50  0001 C CNN "Distributor"
	1    3750 2950
	1    0    0    -1  
$EndComp
Wire Wire Line
	3500 4650 3500 4500
Wire Wire Line
	3500 4500 3750 4500
Wire Wire Line
	4050 4500 4050 4650
Wire Wire Line
	3750 4500 3750 3250
Connection ~ 3750 4500
Wire Wire Line
	3750 4500 4050 4500
Wire Wire Line
	3750 2500 3750 2800
Connection ~ 3750 3250
Wire Wire Line
	3750 3250 3750 3100
Wire Wire Line
	3200 4850 2800 4850
Wire Wire Line
	2800 4700 2800 4850
Connection ~ 2800 4850
Wire Wire Line
	2800 4850 2800 5050
Wire Wire Line
	2450 5050 2450 4850
Wire Wire Line
	2450 4850 2800 4850
Wire Wire Line
	2800 3500 2800 3550
Wire Wire Line
	3500 5050 3500 5100
Wire Wire Line
	4050 5100 4050 5050
Text HLabel 1550 4150 0    50   Input ~ 0
Selbsthaltung
Wire Wire Line
	4600 4850 4350 4850
$Comp
L Device:C C10
U 1 1 6093EBFB
P 4150 2950
F 0 "C10" H 4265 2996 50  0000 L CNN
F 1 "10n" H 4265 2905 50  0000 L CNN
F 2 "t14_standardSMD:C2012m" H 4188 2800 50  0001 C CNN
F 3 "~" H 4150 2950 50  0001 C CNN
F 4 "C83170" H 4150 2950 50  0001 C CNN "DistOrderNr"
F 5 "LCSC" H 4150 2950 50  0001 C CNN "Distributor"
F 6 "CC0805KRX7R9BB103" H 4150 2950 50  0001 C CNN "ManPartNr"
F 7 "YAGEO" H 4150 2950 50  0001 C CNN "Manufacturer"
F 8 "10nF ±10% 50V X7R 0805 Multilayer Ceramic Capacitors MLCC - SMD/SMT RoHS" H 4150 2950 50  0001 C CNN "Notes"
F 9 "0.0048" H 4150 2950 50  0001 C CNN "PriceEUR"
F 10 "50" H 4150 2950 50  0001 C CNN "PriceForQty"
	1    4150 2950
	1    0    0    -1  
$EndComp
Wire Wire Line
	4150 2500 4150 2800
Wire Wire Line
	4150 3100 4150 3250
Connection ~ 4150 3250
Wire Wire Line
	4150 3250 3750 3250
Wire Wire Line
	1550 4150 1800 4150
Text Notes 1600 4100 0    50   ~ 0
3,3V/0V
Wire Wire Line
	4600 5150 4600 4850
Connection ~ 4600 4850
$Comp
L Device:Fuse F1
U 1 1 6095E63F
P 2850 1600
F 0 "F1" V 2653 1600 50  0000 C CNN
F 1 "Clip 20x5" V 2744 1600 50  0000 C CNN
F 2 "htl_mechanical:fuse-clip_20x5mm" V 2780 1600 50  0001 C CNN
F 3 "~" H 2850 1600 50  0001 C CNN
F 4 "LCSC" H 2850 1600 50  0001 C CNN "Distributor"
F 5 "C182320" H 2850 1600 50  0001 C CNN "DistOrderNr"
F 6 "Sicherungshalter, 2 Stück pro Sicherung" H 2850 1600 50  0001 C CNN "Notes"
F 7 "LS-502" H 2850 1600 50  0001 C CNN "ManPartNr"
F 8 "Shenzhen lanson Elec" H 2850 1600 50  0001 C CNN "Manufacturer"
F 9 "0.0132" H 2850 1600 50  0001 C CNN "PriceEUR"
F 10 "200" H 2850 1600 50  0001 C CNN "PriceForQty"
F 11 "https://lcsc.com/product-detail/Fuse-Holders_Shenzhen-lanson-Elec-LS-502_C182320.html" H 2850 1600 50  0001 C CNN "Weblink"
	1    2850 1600
	0    1    1    0   
$EndComp
$Comp
L htl_semiconductors:DiodeTVS D3
U 1 1 609627F6
P 3150 1800
F 0 "D3" V 3112 1879 50  0000 L CNN
F 1 "SMCJ22A" V 3196 1879 40  0000 L CNN
F 2 "Diode_SMD:D_SMC" V 3234 1879 60  0001 L CNN
F 3 "" H 3150 1800 60  0000 C CNN
F 4 "LCSC" H 3150 1800 50  0001 C CNN "Distributor"
F 5 "0.0806" H 3150 1800 50  0001 C CNN "PriceEUR"
F 6 "5" H 3150 1800 50  0001 C CNN "PriceForQty"
F 7 "https://lcsc.com/product-detail/TVS_Brightking-Elec-TAIWAN-SMCJ48A_C310056.html" H 3150 1800 50  0001 C CNN "Weblink"
F 8 "Unidirectional SMC TVS RoHS" H 3150 1800 50  0001 C CNN "Notes"
F 9 "C438104" H 3150 1800 50  0001 C CNN "DistOrderNr"
F 10 "SMCJ22A" H 3150 1800 50  0001 C CNN "ManPartNr"
F 11 "Shandong Jingdao Microelectronics" H 3150 1800 50  0001 C CNN "Manufacturer"
	1    3150 1800
	0    1    1    0   
$EndComp
Wire Wire Line
	3150 1600 3150 1650
Wire Wire Line
	3000 1600 3150 1600
Wire Wire Line
	3150 1950 3150 2000
$Comp
L htl_virtual:Item Item4
U 1 1 60965E2A
P 2850 1250
F 0 "Item4" H 2850 1043 50  0000 C CNN
F 1 "Sicherung, 5x20, 5A, träge" H 2850 1134 50  0000 C CNN
F 2 "htl_virtual:Virtual-Item" V 2780 1250 50  0001 C CNN
F 3 "~" H 2850 1250 50  0001 C CNN
F 4 "LCSC" H 2850 1250 50  0001 C CNN "Distributor"
F 5 "0215005.MXP" H 2850 1250 50  0001 C CNN "ManPartNr"
F 6 "Littelfuse" H 2850 1250 50  0001 C CNN "Manufacturer"
F 7 "Ceramic Tube Fuse Delayed blow/Slow Blow 5A 250V Tube,5x20mm Cartridge Fuses RoHS" H 2850 1250 50  0001 C CNN "Notes"
F 8 "0.16" H 2850 1250 50  0001 C CNN "PriceEUR"
F 9 "5" H 2850 1250 50  0001 C CNN "PriceForQty"
F 10 "https://lcsc.com/product-detail/Cartridge-Fuses_Littelfuse-0618010-MXP_C142673.html" H 2850 1250 50  0001 C CNN "Weblink"
F 11 "C142718" H 2850 1250 50  0001 C CNN "DistOrderNr"
	1    2850 1250
	-1   0    0    1   
$EndComp
Wire Wire Line
	3150 1600 3400 1600
Connection ~ 3150 1600
$Comp
L power:PWR_FLAG #FLG02
U 1 1 6099B9EE
P 3400 1600
F 0 "#FLG02" H 3400 1675 50  0001 C CNN
F 1 "PWR_FLAG" H 3400 1773 50  0000 C CNN
F 2 "" H 3400 1600 50  0001 C CNN
F 3 "~" H 3400 1600 50  0001 C CNN
	1    3400 1600
	1    0    0    -1  
$EndComp
Connection ~ 3400 1600
Wire Wire Line
	7500 3600 7500 3700
Text Notes 7800 3500 0    50   ~ 0
40V, 40mR, Power-SO8
$Comp
L Transistor_FET:2N7002 Q3
U 1 1 609BC7AD
P 1900 5250
F 0 "Q3" H 2106 5296 50  0000 L CNN
F 1 "2N7002" H 2106 5205 50  0000 L CNN
F 2 "t14_standardSMD:SOT-23" H 2100 5175 50  0001 L CIN
F 3 "https://www.fairchildsemi.com/datasheets/2N/2N7002.pdf" H 1900 5250 50  0001 L CNN
F 4 "C181082" H 1900 5250 50  0001 C CNN "DistOrderNr"
F 5 "LCSC" H 1900 5250 50  0001 C CNN "Distributor"
F 6 "2N7002" H 1900 5250 50  0001 C CNN "ManPartNr"
F 7 "Guangdong Hottech" H 1900 5250 50  0001 C CNN "Manufacturer"
F 8 "N-Channel 60V 115mA 2.5V @ 250uA 5Ω @ 500mA,10V 225mW SOT-23(SOT-23-3) MOSFET" H 1900 5250 50  0001 C CNN "Notes"
F 9 "0.0122" H 1900 5250 50  0001 C CNN "PriceEUR"
F 10 "50" H 1900 5250 50  0001 C CNN "PriceForQty"
F 11 "https://lcsc.com/product-detail/MOSFET_Guangdong-Hottech-2N7002_C181082.html" H 1900 5250 50  0001 C CNN "Weblink"
	1    1900 5250
	-1   0    0    -1  
$EndComp
Wire Wire Line
	2100 5250 2200 5250
Wire Wire Line
	2200 5250 2200 4850
Wire Wire Line
	2200 4850 2450 4850
Connection ~ 2450 4850
Wire Wire Line
	1800 5050 1800 4850
Wire Wire Line
	1800 4850 1550 4850
Text HLabel 1550 4850 0    50   Output ~ 0
~Taster
$Sheet
S 8500 4350 1150 350 
U 60A447A8
F0 "Spannungsregler 5V" 50
F1 "dcdc-5v.sch" 50
F2 "IN" I L 8500 4500 50 
F3 "5V" O R 9650 4500 50 
$EndSheet
Wire Wire Line
	2750 2150 2750 2000
Connection ~ 2750 2000
Wire Wire Line
	2750 2000 3150 2000
Wire Wire Line
	9650 4500 9900 4500
$Comp
L Device:R R25
U 1 1 60A621EF
P 8050 4500
F 0 "R25" V 7843 4500 50  0000 C CNN
F 1 "1R" V 7934 4500 50  0000 C CNN
F 2 "t14_standardSMD:R2012m" V 7980 4500 50  0001 C CNN
F 3 "~" H 8050 4500 50  0001 C CNN
F 4 "0.01" H 8050 4500 50  0001 C CNN "PriceEUR"
F 5 "C101537" H 8050 4500 50  0001 C CNN "DistOrderNr"
F 6 "LCSC" H 8050 4500 50  0001 C CNN "Distributor"
	1    8050 4500
	0    1    1    0   
$EndComp
$Comp
L Device:R R26
U 1 1 60A6EE4B
P 10050 4500
F 0 "R26" V 9843 4500 50  0000 C CNN
F 1 "1R" V 9934 4500 50  0000 C CNN
F 2 "t14_standardSMD:R2012m" V 9980 4500 50  0001 C CNN
F 3 "~" H 10050 4500 50  0001 C CNN
F 4 "0.01" H 10050 4500 50  0001 C CNN "PriceEUR"
F 5 "C101537" H 10050 4500 50  0001 C CNN "DistOrderNr"
F 6 "LCSC" H 10050 4500 50  0001 C CNN "Distributor"
	1    10050 4500
	0    1    1    0   
$EndComp
Wire Wire Line
	10200 4500 10350 4500
Text HLabel 10550 4500 2    50   Output ~ 0
5V
$Comp
L Device:R R23
U 1 1 60A7F224
P 7500 5400
F 0 "R23" H 7570 5446 50  0000 L CNN
F 1 "10k" H 7570 5355 50  0000 L CNN
F 2 "t14_standardSMD:R2012m" V 7430 5400 50  0001 C CNN
F 3 "~" H 7500 5400 50  0001 C CNN
F 4 "0.01" H 7500 5400 50  0001 C CNN "PriceEUR"
F 5 "C17414" H 7500 5400 50  0001 C CNN "DistOrderNr"
F 6 "LCSC" H 7500 5400 50  0001 C CNN "Distributor"
	1    7500 5400
	1    0    0    -1  
$EndComp
$Comp
L Device:R R24
U 1 1 60A7F6D0
P 7500 5850
F 0 "R24" H 7570 5896 50  0000 L CNN
F 1 "1k" H 7570 5805 50  0000 L CNN
F 2 "t14_standardSMD:R2012m" V 7430 5850 50  0001 C CNN
F 3 "~" H 7500 5850 50  0001 C CNN
F 4 "0.0042" H 7500 5850 50  0001 C CNN "PriceEUR"
F 5 "C17513" H 7500 5850 50  0001 C CNN "DistOrderNr"
F 6 "LCSC" H 7500 5850 50  0001 C CNN "Distributor"
F 7 "RTT03101JTP" H 7500 5850 50  0001 C CNN "ManPartNr"
F 8 "RALEC" H 7500 5850 50  0001 C CNN "Manufacturer"
F 9 "1kΩ ±5% 0.25W ±100ppm/℃ 1206 Chip Resistor" H 7500 5850 50  0001 C CNN "Notes"
F 10 "50" H 7500 5850 50  0001 C CNN "PriceForQty"
	1    7500 5850
	1    0    0    -1  
$EndComp
Wire Wire Line
	7500 5550 7500 5600
Wire Wire Line
	7500 6000 7500 6200
$Comp
L power:GND #PWR028
U 1 1 60A8133D
P 7500 6200
F 0 "#PWR028" H 7500 5950 50  0001 C CNN
F 1 "GND" H 7505 6027 50  0000 C CNN
F 2 "" H 7500 6200 50  0001 C CNN
F 3 "" H 7500 6200 50  0001 C CNN
	1    7500 6200
	1    0    0    -1  
$EndComp
Wire Wire Line
	7500 5600 7850 5600
Connection ~ 7500 5600
Wire Wire Line
	7500 5600 7500 5700
$Comp
L Device:C C12
U 1 1 60A83141
P 7850 5950
F 0 "C12" H 7965 5996 50  0000 L CNN
F 1 "10u/16V" H 7965 5905 50  0000 L CNN
F 2 "t14_standardSMD:C2012m" H 7888 5800 50  0001 C CNN
F 3 "~" H 7850 5950 50  0001 C CNN
F 4 "C1713" H 7850 5950 50  0001 C CNN "DistOrderNr"
F 5 "LCSC" H 7850 5950 50  0001 C CNN "Distributor"
F 6 "CL21A106KOQNNNE" H 7850 5950 50  0001 C CNN "ManPartNr"
F 7 "Samsung" H 7850 5950 50  0001 C CNN "Manufacturer"
F 8 "10uF ±10% 16V X5R 0805 Multilayer Ceramic Capacitors MLCC - SMD/SMT RoHS" H 7850 5950 50  0001 C CNN "Notes"
F 9 "0.0108" H 7850 5950 50  0001 C CNN "PriceEUR"
F 10 "50" H 7850 5950 50  0001 C CNN "PriceForQty"
	1    7850 5950
	1    0    0    -1  
$EndComp
Wire Wire Line
	7850 5800 7850 5600
Connection ~ 7850 5600
$Comp
L power:GND #PWR029
U 1 1 60A8628D
P 7850 6200
F 0 "#PWR029" H 7850 5950 50  0001 C CNN
F 1 "GND" H 7855 6027 50  0000 C CNN
F 2 "" H 7850 6200 50  0001 C CNN
F 3 "" H 7850 6200 50  0001 C CNN
	1    7850 6200
	1    0    0    -1  
$EndComp
Wire Wire Line
	7850 6200 7850 6100
Wire Wire Line
	7850 5600 10550 5600
Text HLabel 10550 5600 2    50   Output ~ 0
BattMessung
Text Notes 10600 5750 0    50   ~ 0
11:1
$Comp
L Device:R R14
U 1 1 60AD33A8
P 1800 4550
F 0 "R14" H 1870 4596 50  0000 L CNN
F 1 "10k" H 1870 4505 50  0000 L CNN
F 2 "t14_standardSMD:R2012m" V 1730 4550 50  0001 C CNN
F 3 "~" H 1800 4550 50  0001 C CNN
F 4 "0.01" H 1800 4550 50  0001 C CNN "PriceEUR"
F 5 "C17414" H 1800 4550 50  0001 C CNN "DistOrderNr"
F 6 "LCSC" H 1800 4550 50  0001 C CNN "Distributor"
	1    1800 4550
	1    0    0    -1  
$EndComp
Wire Wire Line
	1800 4400 1800 4150
Connection ~ 1800 4150
Wire Wire Line
	1800 4150 4600 4150
Wire Wire Line
	1800 4700 1800 4850
Connection ~ 1800 4850
Wire Wire Line
	3100 3050 3200 3050
Wire Wire Line
	3200 3050 3200 3550
Wire Wire Line
	3200 3550 2800 3550
Connection ~ 2800 3550
Wire Wire Line
	2800 3550 2800 4400
Text Notes 1750 3400 0    50   ~ 0
Kurz drücken: EIN\nLange drücken: AUS
Wire Wire Line
	7500 5250 7500 4500
Connection ~ 7500 4500
$Comp
L htl_virtual:Item Item3
U 1 1 60B6160E
P 2850 900
F 0 "Item3" H 2850 1107 50  0000 C CNN
F 1 "Clip 20x5" H 2850 1016 50  0000 C CNN
F 2 "htl_virtual:Virtual-Item" V 2780 900 50  0001 C CNN
F 3 "~" H 2850 900 50  0001 C CNN
F 4 "LCSC" H 2850 900 50  0001 C CNN "Distributor"
F 5 "C182320" H 2850 900 50  0001 C CNN "DistOrderNr"
F 6 "Sicherungshalter, 2 Stück pro Sicherung" H 2850 900 50  0001 C CNN "Notes"
F 7 "LS-502" H 2850 900 50  0001 C CNN "ManPartNr"
F 8 "Shenzhen lanson Elec" H 2850 900 50  0001 C CNN "Manufacturer"
F 9 "0.0132" H 2850 900 50  0001 C CNN "PriceEUR"
F 10 "200" H 2850 900 50  0001 C CNN "PriceForQty"
F 11 "https://lcsc.com/product-detail/Fuse-Holders_Shenzhen-lanson-Elec-LS-502_C182320.html" H 2850 900 50  0001 C CNN "Weblink"
	1    2850 900 
	1    0    0    -1  
$EndComp
$Comp
L Device:R R18
U 1 1 60909916
P 3750 5350
F 0 "R18" H 3820 5396 50  0000 L CNN
F 1 "2k7" H 3820 5305 50  0000 L CNN
F 2 "t14_standardSMD:R2012m" V 3680 5350 50  0001 C CNN
F 3 "~" H 3750 5350 50  0001 C CNN
F 4 "0.0042" H 3750 5350 50  0001 C CNN "PriceEUR"
F 5 "LCSC" H 3750 5350 50  0001 C CNN "Distributor"
F 6 "RTT03101JTP" H 3750 5350 50  0001 C CNN "ManPartNr"
F 7 "RALEC" H 3750 5350 50  0001 C CNN "Manufacturer"
F 8 "1kΩ ±5% 0.25W ±100ppm/℃ 1206 Chip Resistor" H 3750 5350 50  0001 C CNN "Notes"
F 9 "50" H 3750 5350 50  0001 C CNN "PriceForQty"
F 10 "C204362" H 3750 5350 50  0001 C CNN "DistOrderNr"
	1    3750 5350
	1    0    0    -1  
$EndComp
$Comp
L power:PWR_FLAG #FLG03
U 1 1 60BABAD0
P 8250 4500
F 0 "#FLG03" H 8250 4575 50  0001 C CNN
F 1 "PWR_FLAG" H 8250 4673 50  0000 C CNN
F 2 "" H 8250 4500 50  0001 C CNN
F 3 "~" H 8250 4500 50  0001 C CNN
	1    8250 4500
	-1   0    0    1   
$EndComp
$Comp
L power:PWR_FLAG #FLG05
U 1 1 60BAC8C3
P 10350 4500
F 0 "#FLG05" H 10350 4575 50  0001 C CNN
F 1 "PWR_FLAG" H 10350 4673 50  0000 C CNN
F 2 "" H 10350 4500 50  0001 C CNN
F 3 "~" H 10350 4500 50  0001 C CNN
	1    10350 4500
	-1   0    0    1   
$EndComp
Connection ~ 10350 4500
Wire Wire Line
	10350 4500 10550 4500
$Comp
L power:PWR_FLAG #FLG01
U 1 1 60BBCE94
P 2750 2000
F 0 "#FLG01" H 2750 2075 50  0001 C CNN
F 1 "PWR_FLAG" H 2750 2173 50  0000 C CNN
F 2 "" H 2750 2000 50  0001 C CNN
F 3 "~" H 2750 2000 50  0001 C CNN
	1    2750 2000
	1    0    0    -1  
$EndComp
$Comp
L power:GND #PWR030
U 1 1 60B7CAD7
P 8200 6200
F 0 "#PWR030" H 8200 5950 50  0001 C CNN
F 1 "GND" H 8205 6027 50  0000 C CNN
F 2 "" H 8200 6200 50  0001 C CNN
F 3 "" H 8200 6200 50  0001 C CNN
	1    8200 6200
	1    0    0    -1  
$EndComp
$Comp
L Connector_Generic:Conn_01x01 X10
U 1 1 60B7EA5B
P 8400 6050
F 0 "X10" H 8480 6092 50  0000 L CNN
F 1 "GND-Öse" H 8480 6001 50  0000 L CNN
F 2 "htl_smd:Keystone_5016" H 8400 6050 50  0001 C CNN
F 3 "~" H 8400 6050 50  0001 C CNN
F 4 "C238129" H 8400 6050 50  0001 C CNN "DistOrderNr"
F 5 "LCSC" H 8400 6050 50  0001 C CNN "Distributor"
F 6 "5016" H 8400 6050 50  0001 C CNN "ManPartNr"
F 7 "Keystone" H 8400 6050 50  0001 C CNN "Manufacturer"
F 8 "SMD Test Öse" H 8400 6050 50  0001 C CNN "Notes"
F 9 "0.1175" H 8400 6050 50  0001 C CNN "PriceEUR"
F 10 "10" H 8400 6050 50  0001 C CNN "PriceForQty"
	1    8400 6050
	1    0    0    -1  
$EndComp
Wire Wire Line
	8200 6050 8200 6200
Text Notes 3300 2050 0    50   ~ 0
Zum Schutz der Schrittmotortreiber, \nabs. max. 35V
Wire Wire Line
	3500 5100 3750 5100
Wire Wire Line
	3750 5200 3750 5100
Connection ~ 3750 5100
Wire Wire Line
	3750 5100 4050 5100
Text HLabel 10400 3900 2    50   Output ~ 0
BAT+_Switched
Wire Wire Line
	3400 1600 7500 1600
Wire Wire Line
	7500 4500 7900 4500
$Comp
L Connector_Generic:Conn_01x01 J27
U 1 1 60CE80B8
P 1600 1600
F 0 "J27" H 1518 1375 50  0000 C CNN
F 1 "Batt+" H 1518 1466 50  0000 C CNN
F 2 "t14_mech:Wirepad_5x3_SMT" H 1600 1600 50  0001 C CNN
F 3 "~" H 1600 1600 50  0001 C CNN
F 4 "virtual" H 1600 1600 50  0001 C CNN "DistOrderNr"
	1    1600 1600
	-1   0    0    1   
$EndComp
$Comp
L Connector_Generic:Conn_01x01 J28
U 1 1 60CE8539
P 1600 2000
F 0 "J28" H 1518 1775 50  0000 C CNN
F 1 "Batt-" H 1518 1866 50  0000 C CNN
F 2 "t14_mech:Wirepad_5x3_SMT" H 1600 2000 50  0001 C CNN
F 3 "~" H 1600 2000 50  0001 C CNN
F 4 "virtual" H 1600 2000 50  0001 C CNN "DistOrderNr"
	1    1600 2000
	-1   0    0    1   
$EndComp
Wire Wire Line
	1800 1600 2700 1600
Wire Wire Line
	1800 2000 2750 2000
$Comp
L power:GND #PWR027
U 1 1 60CEC7E9
P 2750 2150
F 0 "#PWR027" H 2750 1900 50  0001 C CNN
F 1 "GND" H 2755 1977 50  0000 C CNN
F 2 "" H 2750 2150 50  0001 C CNN
F 3 "" H 2750 2150 50  0001 C CNN
	1    2750 2150
	1    0    0    -1  
$EndComp
Text Label 2050 1600 0    50   ~ 0
BAT+
Text Label 2050 2000 0    50   ~ 0
BAT-
Wire Wire Line
	7500 1600 7500 2500
Wire Wire Line
	2800 2500 3750 2500
Wire Wire Line
	3750 2500 4150 2500
Connection ~ 3750 2500
Wire Wire Line
	4150 2500 7500 2500
Connection ~ 4150 2500
Text Notes 850  1350 0    50   ~ 0
max. 5S Lithium-Akku\nmax. 22V\nmin. 12V
$Comp
L t14_semiconductor:PMOSFET-PowerPAK-SO8 Q7
U 1 1 60CFE950
P 7400 3250
F 0 "Q7" H 7827 3303 70  0000 L CNN
F 1 "HSM4113" H 7827 3189 60  0000 L CNN
F 2 "t14_standardSMD:POWER_SO8" H 7827 3136 60  0001 L CNN
F 3 "" H 7400 3250 60  0000 C CNN
F 4 "C700983 " H 7400 3250 50  0001 C CNN "DistOrderNr"
F 5 "Alternativ LCSC#C700982" H 7400 3250 50  0001 C CNN "Notes"
F 6 "LCSC" H 7400 3250 50  0001 C CNN "Distributor"
F 7 "0.095" H 7400 3250 50  0001 C CNN "PriceEUR"
F 8 "10" H 7400 3250 50  0001 C CNN "PriceForQty"
	1    7400 3250
	1    0    0    -1  
$EndComp
Wire Wire Line
	7350 3500 7350 3600
Wire Wire Line
	7350 3600 7450 3600
Wire Wire Line
	7750 3600 7750 3500
Connection ~ 7500 3600
Wire Wire Line
	7500 3600 7550 3600
Wire Wire Line
	7650 3500 7650 3600
Connection ~ 7650 3600
Wire Wire Line
	7650 3600 7750 3600
Wire Wire Line
	7550 3500 7550 3600
Connection ~ 7550 3600
Wire Wire Line
	7550 3600 7650 3600
Wire Wire Line
	7450 3500 7450 3600
Connection ~ 7450 3600
Wire Wire Line
	7450 3600 7500 3600
Wire Wire Line
	4150 3250 7300 3250
Wire Wire Line
	7400 3000 7400 2850
Wire Wire Line
	7400 2850 7500 2850
Wire Wire Line
	7600 2850 7600 3000
Wire Wire Line
	7500 3000 7500 2850
Connection ~ 7500 2850
Wire Wire Line
	7500 2850 7600 2850
Wire Wire Line
	7500 2850 7500 2500
Connection ~ 7500 2500
Wire Wire Line
	8200 4500 8250 4500
Connection ~ 8250 4500
$Comp
L power:GND #PWR026
U 1 1 60CECFAB
P 1350 5950
F 0 "#PWR026" H 1350 5700 50  0001 C CNN
F 1 "GND" H 1355 5777 50  0000 C CNN
F 2 "" H 1350 5950 50  0001 C CNN
F 3 "" H 1350 5950 50  0001 C CNN
	1    1350 5950
	1    0    0    -1  
$EndComp
Wire Wire Line
	3750 5650 4600 5650
Connection ~ 3750 5650
Wire Wire Line
	3750 5500 3750 5650
Wire Wire Line
	2800 5650 3750 5650
Connection ~ 2800 5650
Wire Wire Line
	2450 5650 2800 5650
Connection ~ 2450 5650
Connection ~ 1800 5650
Wire Wire Line
	1800 5650 2450 5650
Wire Wire Line
	1350 5650 1800 5650
Wire Wire Line
	1350 5950 1350 5650
Wire Wire Line
	1800 5450 1800 5650
Wire Wire Line
	4600 5650 4600 5450
Wire Wire Line
	2450 5650 2450 5350
Wire Wire Line
	2800 5650 2800 5350
Wire Wire Line
	4600 4150 4600 4350
Wire Wire Line
	4600 4750 4600 4850
Wire Wire Line
	4900 4550 5000 4550
Connection ~ 7500 3700
Wire Wire Line
	7500 3700 7500 3900
Connection ~ 4600 5650
$Comp
L Device:R R21
U 1 1 60D41683
P 6500 4400
F 0 "R21" H 6570 4446 50  0000 L CNN
F 1 "10k" H 6570 4355 50  0000 L CNN
F 2 "t14_standardSMD:R2012m" V 6430 4400 50  0001 C CNN
F 3 "~" H 6500 4400 50  0001 C CNN
F 4 "0.01" H 6500 4400 50  0001 C CNN "PriceEUR"
F 5 "C17414" H 6500 4400 50  0001 C CNN "DistOrderNr"
F 6 "LCSC" H 6500 4400 50  0001 C CNN "Distributor"
	1    6500 4400
	1    0    0    -1  
$EndComp
Connection ~ 6500 5650
Wire Wire Line
	6500 4250 6500 3700
Wire Wire Line
	8250 4500 8500 4500
Text Notes 10050 4950 0    50   ~ 0
3V3 LDO bei USB
Wire Wire Line
	10400 3900 10250 3900
Connection ~ 7500 3900
Wire Wire Line
	7500 3900 7500 4500
Wire Wire Line
	6500 5650 6850 5650
Wire Wire Line
	5000 4200 5000 4150
Wire Wire Line
	5000 4150 4600 4150
Connection ~ 4600 4150
Wire Wire Line
	5000 4550 5000 4500
Connection ~ 5000 4550
Wire Wire Line
	6500 3700 7500 3700
$Comp
L power:PWR_FLAG #FLG04
U 1 1 60E41E8B
P 10250 3900
F 0 "#FLG04" H 10250 3975 50  0001 C CNN
F 1 "PWR_FLAG" H 10250 4073 50  0000 C CNN
F 2 "" H 10250 3900 50  0001 C CNN
F 3 "~" H 10250 3900 50  0001 C CNN
	1    10250 3900
	1    0    0    -1  
$EndComp
Connection ~ 10250 3900
Wire Wire Line
	10250 3900 7500 3900
Wire Wire Line
	2800 2500 2800 3050
$Comp
L Device:C C9
U 1 1 60EA1542
P 2950 3050
F 0 "C9" V 2698 3050 50  0000 C CNN
F 1 "10n" V 2789 3050 50  0000 C CNN
F 2 "t14_standardSMD:C2012m" H 2988 2900 50  0001 C CNN
F 3 "~" H 2950 3050 50  0001 C CNN
F 4 "C83170" H 2950 3050 50  0001 C CNN "DistOrderNr"
F 5 "LCSC" H 2950 3050 50  0001 C CNN "Distributor"
F 6 "CC0805KRX7R9BB103" H 2950 3050 50  0001 C CNN "ManPartNr"
F 7 "YAGEO" H 2950 3050 50  0001 C CNN "Manufacturer"
F 8 "10nF ±10% 50V X7R 0805 Multilayer Ceramic Capacitors MLCC - SMD/SMT RoHS" H 2950 3050 50  0001 C CNN "Notes"
F 9 "0.0048" H 2950 3050 50  0001 C CNN "PriceEUR"
F 10 "50" H 2950 3050 50  0001 C CNN "PriceForQty"
	1    2950 3050
	0    1    1    0   
$EndComp
Connection ~ 2800 3050
Wire Wire Line
	2800 3050 2800 3100
$Comp
L Device:R R20
U 1 1 60EC1549
P 5000 4350
F 0 "R20" H 5070 4396 50  0000 L CNN
F 1 "10k" H 5070 4305 50  0000 L CNN
F 2 "t14_standardSMD:R2012m" V 4930 4350 50  0001 C CNN
F 3 "~" H 5000 4350 50  0001 C CNN
F 4 "0.0042" H 5000 4350 50  0001 C CNN "PriceEUR"
F 5 "C17414" H 5000 4350 50  0001 C CNN "DistOrderNr"
F 6 "LCSC" H 5000 4350 50  0001 C CNN "Distributor"
F 7 "RTT03101JTP" H 5000 4350 50  0001 C CNN "ManPartNr"
F 8 "RALEC" H 5000 4350 50  0001 C CNN "Manufacturer"
F 9 "1kΩ ±5% 0.25W ±100ppm/℃ 1206 Chip Resistor" H 5000 4350 50  0001 C CNN "Notes"
F 10 "50" H 5000 4350 50  0001 C CNN "PriceForQty"
	1    5000 4350
	1    0    0    -1  
$EndComp
$Comp
L t14_atomic:Zener-5V6-250mW-2p D2
U 1 1 60EC8904
P 2800 5200
F 0 "D2" V 2754 5279 50  0000 L CNN
F 1 "3V3/250mW" V 2845 5279 50  0000 L CNN
F 2 "t14_standardSMD:SOT-23" H 2700 5200 50  0001 C CNN
F 3 "https://en.wikipedia.org/wiki/Zener_diode" H 2800 5300 50  0001 C CNN
F 4 "" H 2900 5400 50  0001 C CNN "InternalName"
F 5 "C82473" H 2800 5200 50  0001 C CNN "DistOrderNr"
F 6 "LCSC" H 2800 5200 50  0001 C CNN "Distributor"
F 7 "BZX84C3V3LT1G" H 2800 5200 50  0001 C CNN "ManPartNr"
F 8 "ON Semiconductor" H 2800 5200 50  0001 C CNN "Manufacturer"
F 9 "3.3V ±6% 225mW 5uA @ 1V SOT-23(SOT-23-3) Zener Diodes RoHS" H 2800 5200 50  0001 C CNN "Notes"
F 10 "0.0218" H 2800 5200 50  0001 C CNN "PriceEUR"
F 11 "20" H 2800 5200 50  0001 C CNN "PriceForQty"
	1    2800 5200
	0    1    1    0   
$EndComp
$Comp
L Device:R R19
U 1 1 6095473F
P 4600 5300
F 0 "R19" H 4670 5346 50  0000 L CNN
F 1 "1k" H 4670 5255 50  0000 L CNN
F 2 "t14_standardSMD:R2012m" V 4530 5300 50  0001 C CNN
F 3 "~" H 4600 5300 50  0001 C CNN
F 4 "0.0042" H 4600 5300 50  0001 C CNN "PriceEUR"
F 5 "C17513" H 4600 5300 50  0001 C CNN "DistOrderNr"
F 6 "LCSC" H 4600 5300 50  0001 C CNN "Distributor"
F 7 "RTT03101JTP" H 4600 5300 50  0001 C CNN "ManPartNr"
F 8 "RALEC" H 4600 5300 50  0001 C CNN "Manufacturer"
F 9 "1kΩ ±5% 0.25W ±100ppm/℃ 1206 Chip Resistor" H 4600 5300 50  0001 C CNN "Notes"
F 10 "50" H 4600 5300 50  0001 C CNN "PriceForQty"
	1    4600 5300
	1    0    0    -1  
$EndComp
Wire Wire Line
	6850 5650 6850 5500
Wire Wire Line
	6500 5500 6500 5650
$Comp
L Device:C C11
U 1 1 60D86A4D
P 6850 5350
F 0 "C11" H 6965 5396 50  0000 L CNN
F 1 "10u/16V" H 6900 5250 50  0000 L CNN
F 2 "t14_standardSMD:C2012m" H 6888 5200 50  0001 C CNN
F 3 "~" H 6850 5350 50  0001 C CNN
F 4 "C1713" H 6850 5350 50  0001 C CNN "DistOrderNr"
F 5 "LCSC" H 6850 5350 50  0001 C CNN "Distributor"
F 6 "CL21A106KOQNNNE" H 6850 5350 50  0001 C CNN "ManPartNr"
F 7 "Samsung" H 6850 5350 50  0001 C CNN "Manufacturer"
F 8 "10uF ±10% 16V X5R 0805 Multilayer Ceramic Capacitors MLCC - SMD/SMT RoHS" H 6850 5350 50  0001 C CNN "Notes"
F 9 "0.0108" H 6850 5350 50  0001 C CNN "PriceEUR"
F 10 "50" H 6850 5350 50  0001 C CNN "PriceForQty"
	1    6850 5350
	1    0    0    -1  
$EndComp
$Comp
L Device:R R22
U 1 1 60D41C30
P 6500 5350
F 0 "R22" H 6570 5396 50  0000 L CNN
F 1 "1k8" H 6570 5305 50  0000 L CNN
F 2 "t14_standardSMD:R2012m" V 6430 5350 50  0001 C CNN
F 3 "~" H 6500 5350 50  0001 C CNN
F 4 "0.01" H 6500 5350 50  0001 C CNN "PriceEUR"
F 5 "C203809" H 6500 5350 50  0001 C CNN "DistOrderNr"
F 6 "LCSC" H 6500 5350 50  0001 C CNN "Distributor"
	1    6500 5350
	1    0    0    -1  
$EndComp
Text Notes 6300 4300 3    50   ~ 0
Vref = 2.51V
Wire Wire Line
	6500 4550 6500 4950
Connection ~ 6500 4950
Wire Wire Line
	6850 5200 6850 4950
Wire Wire Line
	6850 4950 6500 4950
$Comp
L htl_ics:TL431 U5
U 1 1 60E952CD
P 6150 5400
F 0 "U5" H 6237 5446 50  0000 L CNN
F 1 "TL431" H 6237 5355 50  0000 L CNN
F 2 "t14_standardSMD:SOT-23" H 6150 5250 50  0001 C CIN
F 3 "https://datasheet.lcsc.com/lcsc/1809211429_Guangdong-Hottech-TL431_C181103.pdf" H 6150 5400 50  0001 C CIN
F 4 "LCSC" H 6150 5400 50  0001 C CNN "Distributor"
F 5 "C181103" H 6150 5400 50  0001 C CNN "DistOrderNr"
F 6 "0.021" H 6150 5400 50  0001 C CNN "PriceEUR"
	1    6150 5400
	-1   0    0    -1  
$EndComp
Wire Wire Line
	6500 5200 6500 4950
Text Notes 4900 4750 2    50   ~ 0
PMOS
$Comp
L Device:Q_PMOS_GSD Q6
U 1 1 60D31C68
P 4700 4550
F 0 "Q6" H 4905 4504 50  0000 L CNN
F 1 "SI2301" H 4905 4595 50  0000 L CNN
F 2 "t14_standardSMD:SOT-23" H 4900 4650 50  0001 C CNN
F 3 "~" H 4700 4550 50  0001 C CNN
F 4 "LCSC" H 4700 4550 50  0001 C CNN "Distributor"
F 5 "C181086" H 4700 4550 50  0001 C CNN "DistOrderNr"
	1    4700 4550
	-1   0    0    1   
$EndComp
$Comp
L Comparator:LMV7219M5 U7
U 1 1 60EDDF88
P 5500 4850
F 0 "U7" H 5500 5331 50  0000 C CNN
F 1 "DIO20871ST5" H 5500 5240 50  0000 C CNN
F 2 "Package_TO_SOT_SMD:SOT-23-5" H 5400 4650 50  0001 L CNN
F 3 "https://www.ti.com/lit/ds/symlink/lmv7219.pdf" H 5500 5050 50  0001 C CNN
F 4 "LCSC" H 5500 4850 50  0001 C CNN "Distributor"
F 5 "C444550" H 5500 4850 50  0001 C CNN "DistOrderNr"
F 6 "0.0684" H 5500 4850 50  0001 C CNN "PriceEUR"
F 7 "10" H 5500 4850 50  0001 C CNN "PriceForQty"
F 8 "Komparator SOT-23-5" H 5500 4850 50  0001 C CNN "Notes"
	1    5500 4850
	-1   0    0    -1  
$EndComp
Wire Wire Line
	5200 4850 5000 4850
Wire Wire Line
	5000 4550 5000 4850
Wire Wire Line
	5600 5150 5600 5650
Connection ~ 5600 5650
Wire Wire Line
	5600 5650 6150 5650
Wire Wire Line
	5600 4050 5600 4550
Wire Wire Line
	5800 4950 6500 4950
Wire Wire Line
	5800 4750 6150 4750
Wire Wire Line
	6150 4750 6150 5150
Wire Wire Line
	6150 5150 6300 5150
Wire Wire Line
	6300 5150 6300 5400
Connection ~ 6150 5150
Wire Wire Line
	6150 5150 6150 5250
Wire Wire Line
	6150 5550 6150 5650
Connection ~ 6150 5650
Wire Wire Line
	6150 5650 6500 5650
Wire Wire Line
	6150 4250 6150 4050
Wire Wire Line
	6150 4050 5600 4050
Wire Wire Line
	6150 4550 6150 4750
Connection ~ 6150 4750
Wire Wire Line
	4600 5650 5600 5650
Text Label 5850 4750 0    50   ~ 0
vref
Text Label 5800 4950 0    50   ~ 0
cmp_bat
Text Label 5000 4850 0    50   ~ 0
veto
$Comp
L Device:R R?
U 1 1 60F41AEF
P 6150 4400
AR Path="/60F41AEF" Ref="R?"  Part="1" 
AR Path="/60CF3D45/60F41AEF" Ref="R30"  Part="1" 
F 0 "R30" V 5943 4400 50  0000 C CNN
F 1 "100R" V 6034 4400 50  0000 C CNN
F 2 "t14_standardSMD:R2012m" V 6080 4400 50  0001 C CNN
F 3 "~" H 6150 4400 50  0001 C CNN
F 4 "C115424" H 6150 4400 50  0001 C CNN "DistOrderNr"
F 5 "LCSC" H 6150 4400 50  0001 C CNN "Distributor"
	1    6150 4400
	1    0    0    -1  
$EndComp
Text HLabel 1400 3750 0    50   Input ~ 0
3V3
Wire Wire Line
	1400 3750 5600 3750
Wire Wire Line
	5600 3750 5600 4050
Connection ~ 5600 4050
$EndSCHEMATC
