EESchema Schematic File Version 4
EELAYER 30 0
EELAYER END
$Descr A4 11693 8268
encoding utf-8
Sheet 6 7
Title "HTL Lötregler Mini"
Date "2021-06-01"
Rev "21.0.0"
Comp "HTL Steyr"
Comment1 "Prof. Karl Zeilhofer et al."
Comment2 ""
Comment3 ""
Comment4 ""
$EndDescr
Wire Wire Line
	1550 6800 1550 6750
Wire Wire Line
	3750 7250 3750 7000
$Comp
L Device:C C?
U 1 1 60944ADC
P 4050 5500
AR Path="/5F64F622/60944ADC" Ref="C?"  Part="1" 
AR Path="/5F78AFC8/60944ADC" Ref="C?"  Part="1" 
AR Path="/5F7F8851/5F7FB5B8/60944ADC" Ref="C?"  Part="1" 
AR Path="/5F8070C3/5F7FB5B8/60944ADC" Ref="C?"  Part="1" 
AR Path="/5F8AD0E2/5F7FB5B8/60944ADC" Ref="C?"  Part="1" 
AR Path="/5FA85ABF/5F7FB5B8/60944ADC" Ref="C?"  Part="1" 
AR Path="/5F8D661A/60944ADC" Ref="C?"  Part="1" 
AR Path="/608DBC3C/60930C19/60930D3D/60944ADC" Ref="C?"  Part="1" 
AR Path="/608DBC3C/60930C19/60944ADC" Ref="C11"  Part="1" 
AR Path="/60CB1E03/60CBA5B1/60CBBE2B/60944ADC" Ref="C?"  Part="1" 
F 0 "C?" V 3798 5500 50  0000 C CNN
F 1 "100n" V 3889 5500 50  0000 C CNN
F 2 "Capacitor_SMD:C_1206_3216Metric" H 4088 5350 50  0001 C CNN
F 3 "https://datasheet.lcsc.com/szlcsc/1811151136_Walsin-Tech-Corp-0603B104K160CT_C80516.pdf" H 4050 5500 50  0001 C CNN
F 4 "LCSC" H 4050 5500 50  0001 C CNN "Distributor"
F 5 "PSA(Prosperity Dielectrics)" H 4050 5500 50  0001 C CNN "Manufacturer"
F 6 "100nF ±10% 50V X7R Multilayer Ceramic Capacitors MLCC" H 4050 5500 50  0001 C CNN "Notes"
F 7 "" H 4050 5500 50  0001 C CNN "OrderNr"
F 8 "" H 4050 5500 50  0001 C CNN "PartNr"
F 9 "0.0093" H 4050 5500 50  0001 C CNN "PriceEUR"
F 10 "500" H 4050 5500 50  0001 C CNN "PriceForQty"
F 11 "https://lcsc.com/product-detail/Multilayer-Ceramic-Capacitors-MLCC-SMD-SMT_Walsin-Tech-Corp-0603B104K160CT_C80516.html" H 4050 5500 50  0001 C CNN "Weblink"
F 12 "C464972" H 4050 5500 50  0001 C CNN "DistOrderNr"
F 13 "FN31X104K500PXG" H 4050 5500 50  0001 C CNN "ManPartNr"
	1    4050 5500
	0    1    1    0   
$EndComp
$Comp
L power:GND #PWR?
U 1 1 60944AE2
P 4300 5500
AR Path="/5F64F622/60944AE2" Ref="#PWR?"  Part="1" 
AR Path="/5F78AFC8/60944AE2" Ref="#PWR?"  Part="1" 
AR Path="/5F7F8851/5F7FB5B8/60944AE2" Ref="#PWR?"  Part="1" 
AR Path="/5F8070C3/5F7FB5B8/60944AE2" Ref="#PWR?"  Part="1" 
AR Path="/5F8AD0E2/5F7FB5B8/60944AE2" Ref="#PWR?"  Part="1" 
AR Path="/5FA85ABF/5F7FB5B8/60944AE2" Ref="#PWR?"  Part="1" 
AR Path="/5F8D661A/60944AE2" Ref="#PWR?"  Part="1" 
AR Path="/608DBC3C/60930C19/60930D3D/60944AE2" Ref="#PWR?"  Part="1" 
AR Path="/608DBC3C/60930C19/60944AE2" Ref="#PWR017"  Part="1" 
AR Path="/60CB1E03/60CBA5B1/60CBBE2B/60944AE2" Ref="#PWR?"  Part="1" 
F 0 "#PWR?" H 4300 5250 50  0001 C CNN
F 1 "GND" V 4305 5372 50  0000 R CNN
F 2 "" H 4300 5500 50  0001 C CNN
F 3 "" H 4300 5500 50  0001 C CNN
	1    4300 5500
	0    -1   -1   0   
$EndComp
Wire Wire Line
	4300 5500 4200 5500
Wire Wire Line
	3900 5500 3750 5500
Connection ~ 3750 5500
Wire Wire Line
	3750 5500 3750 5800
$Comp
L htl_ics:CH340C U?
U 1 1 60944AF4
P 3750 6400
AR Path="/5F64F622/60944AF4" Ref="U?"  Part="1" 
AR Path="/5F78AFC8/60944AF4" Ref="U?"  Part="1" 
AR Path="/5F7F8851/5F7FB5B8/60944AF4" Ref="U?"  Part="1" 
AR Path="/5F8070C3/5F7FB5B8/60944AF4" Ref="U?"  Part="1" 
AR Path="/5F8AD0E2/5F7FB5B8/60944AF4" Ref="U?"  Part="1" 
AR Path="/5FA85ABF/5F7FB5B8/60944AF4" Ref="U?"  Part="1" 
AR Path="/5F8D661A/60944AF4" Ref="U?"  Part="1" 
AR Path="/608DBC3C/60930C19/60930D3D/60944AF4" Ref="U?"  Part="1" 
AR Path="/608DBC3C/60930C19/60944AF4" Ref="U4"  Part="1" 
AR Path="/60CB1E03/60CBA5B1/60CBBE2B/60944AF4" Ref="U?"  Part="1" 
F 0 "U?" H 3350 7000 50  0000 C CNN
F 1 "CH340C" H 3950 5850 50  0000 C CNN
F 2 "Package_SO:SOIC-16_3.9x9.9mm_P1.27mm" H 3800 5850 50  0001 L CNN
F 3 "https://www.mpja.com/download/35227cpdata.pdf" H 3400 7200 50  0001 C CNN
F 4 "WCH(Jiangsu Qin Heng)" H 3750 6400 50  0001 C CNN "Manufacturer"
F 5 "LCSC" H 3750 6400 50  0001 C CNN "Distributor"
F 6 "C84681" H 3750 6400 50  0001 C CNN "DistOrderNr"
F 7 "0.239" H 3750 6400 50  0001 C CNN "PriceEUR"
F 8 "100" H 3750 6400 50  0001 C CNN "PriceForQty"
F 9 "https://lcsc.com/product-detail/USB-ICs_WCH-Jiangsu-Qin-Heng-CH340C_C84681.html" H 3750 6400 50  0001 C CNN "Weblink"
F 10 "CH340C" H 3750 6400 50  0001 C CNN "ManPartNr"
F 11 "USB-UART with internal clock" H 3750 6400 50  0001 C CNN "Notes"
	1    3750 6400
	1    0    0    -1  
$EndComp
NoConn ~ 3350 6800
$Comp
L Device:R R?
U 1 1 60944B03
P 3150 6100
AR Path="/5F64F622/60944B03" Ref="R?"  Part="1" 
AR Path="/5F78AFC8/60944B03" Ref="R?"  Part="1" 
AR Path="/5F7F8851/5F7FB5B8/60944B03" Ref="R?"  Part="1" 
AR Path="/5F8070C3/5F7FB5B8/60944B03" Ref="R?"  Part="1" 
AR Path="/5F8AD0E2/5F7FB5B8/60944B03" Ref="R?"  Part="1" 
AR Path="/5FA85ABF/5F7FB5B8/60944B03" Ref="R?"  Part="1" 
AR Path="/5F8D661A/60944B03" Ref="R?"  Part="1" 
AR Path="/608DBC3C/60930C19/60930D3D/60944B03" Ref="R?"  Part="1" 
AR Path="/608DBC3C/60930C19/60944B03" Ref="R12"  Part="1" 
AR Path="/60CB1E03/60CBA5B1/60CBBE2B/60944B03" Ref="R?"  Part="1" 
F 0 "R?" V 2943 6100 50  0000 C CNN
F 1 "100R" V 3034 6100 50  0000 C CNN
F 2 "Resistor_SMD:R_1206_3216Metric" V 3080 6100 50  0001 C CNN
F 3 "https://datasheet.lcsc.com/szlcsc/Uniroyal-Elec-0603WAJ0101T5E_C25201.pdf" H 3150 6100 50  0001 C CNN
F 4 "C113307" H 3150 6100 50  0001 C CNN "DistOrderNr"
F 5 "LCSC" H 3150 6100 50  0001 C CNN "Distributor"
F 6 "RC1206JR-07100RL" H 3150 6100 50  0001 C CNN "ManPartNr"
F 7 "YAGEO" H 3150 6100 50  0001 C CNN "Manufacturer"
F 8 "100Ω ±5% 0.25W ±100ppm/℃ 1206 Chip Resistor" H 3150 6100 50  0001 C CNN "Notes"
F 9 "0.0037" H 3150 6100 50  0001 C CNN "PriceEUR"
F 10 "500" H 3150 6100 50  0001 C CNN "PriceForQty"
F 11 "https://lcsc.com/product-detail/Chip-Resistor-Surface-Mount_UNI-ROYAL-Uniroyal-Elec-0603WAJ0101T5E_C25201.html" H 3150 6100 50  0001 C CNN "Weblink"
	1    3150 6100
	0    1    1    0   
$EndComp
Wire Wire Line
	3300 6100 3350 6100
$Comp
L power:GND #PWR?
U 1 1 60944B0A
P 2850 6100
AR Path="/5F64F622/60944B0A" Ref="#PWR?"  Part="1" 
AR Path="/5F78AFC8/60944B0A" Ref="#PWR?"  Part="1" 
AR Path="/5F7F8851/5F7FB5B8/60944B0A" Ref="#PWR?"  Part="1" 
AR Path="/5F8070C3/5F7FB5B8/60944B0A" Ref="#PWR?"  Part="1" 
AR Path="/5F8AD0E2/5F7FB5B8/60944B0A" Ref="#PWR?"  Part="1" 
AR Path="/5FA85ABF/5F7FB5B8/60944B0A" Ref="#PWR?"  Part="1" 
AR Path="/5F8D661A/60944B0A" Ref="#PWR?"  Part="1" 
AR Path="/608DBC3C/60930C19/60930D3D/60944B0A" Ref="#PWR?"  Part="1" 
AR Path="/608DBC3C/60930C19/60944B0A" Ref="#PWR012"  Part="1" 
AR Path="/60CB1E03/60CBA5B1/60CBBE2B/60944B0A" Ref="#PWR?"  Part="1" 
F 0 "#PWR?" H 2850 5850 50  0001 C CNN
F 1 "GND" H 2855 5927 50  0000 C CNN
F 2 "" H 2850 6100 50  0001 C CNN
F 3 "" H 2850 6100 50  0001 C CNN
	1    2850 6100
	0    1    1    0   
$EndComp
Wire Wire Line
	2850 6100 3000 6100
Wire Wire Line
	4150 6000 4500 6000
Wire Wire Line
	4150 6100 4500 6100
$Comp
L Device:C C?
U 1 1 60944B23
P 3350 5500
AR Path="/5F64F622/60944B23" Ref="C?"  Part="1" 
AR Path="/5F78AFC8/60944B23" Ref="C?"  Part="1" 
AR Path="/5F7F8851/5F7FB5B8/60944B23" Ref="C?"  Part="1" 
AR Path="/5F8070C3/5F7FB5B8/60944B23" Ref="C?"  Part="1" 
AR Path="/5F8AD0E2/5F7FB5B8/60944B23" Ref="C?"  Part="1" 
AR Path="/5FA85ABF/5F7FB5B8/60944B23" Ref="C?"  Part="1" 
AR Path="/5F8D661A/60944B23" Ref="C?"  Part="1" 
AR Path="/608DBC3C/60930C19/60930D3D/60944B23" Ref="C?"  Part="1" 
AR Path="/608DBC3C/60930C19/60944B23" Ref="C9"  Part="1" 
AR Path="/60CB1E03/60CBA5B1/60CBBE2B/60944B23" Ref="C?"  Part="1" 
F 0 "C?" V 3098 5500 50  0000 C CNN
F 1 "100n" V 3189 5500 50  0000 C CNN
F 2 "Capacitor_SMD:C_1206_3216Metric" H 3388 5350 50  0001 C CNN
F 3 "https://datasheet.lcsc.com/szlcsc/1811151136_Walsin-Tech-Corp-0603B104K160CT_C80516.pdf" H 3350 5500 50  0001 C CNN
F 4 "LCSC" H 3350 5500 50  0001 C CNN "Distributor"
F 5 "PSA(Prosperity Dielectrics)" H 3350 5500 50  0001 C CNN "Manufacturer"
F 6 "100nF ±10% 50V X7R Multilayer Ceramic Capacitors MLCC" H 3350 5500 50  0001 C CNN "Notes"
F 7 "" H 3350 5500 50  0001 C CNN "OrderNr"
F 8 "" H 3350 5500 50  0001 C CNN "PartNr"
F 9 "0.0093" H 3350 5500 50  0001 C CNN "PriceEUR"
F 10 "500" H 3350 5500 50  0001 C CNN "PriceForQty"
F 11 "https://lcsc.com/product-detail/Multilayer-Ceramic-Capacitors-MLCC-SMD-SMT_Walsin-Tech-Corp-0603B104K160CT_C80516.html" H 3350 5500 50  0001 C CNN "Weblink"
F 12 "C464972" H 3350 5500 50  0001 C CNN "DistOrderNr"
F 13 "FN31X104K500PXG" H 3350 5500 50  0001 C CNN "ManPartNr"
	1    3350 5500
	0    1    1    0   
$EndComp
$Comp
L power:GND #PWR?
U 1 1 60944B29
P 3100 5500
AR Path="/5F64F622/60944B29" Ref="#PWR?"  Part="1" 
AR Path="/5F78AFC8/60944B29" Ref="#PWR?"  Part="1" 
AR Path="/5F7F8851/5F7FB5B8/60944B29" Ref="#PWR?"  Part="1" 
AR Path="/5F8070C3/5F7FB5B8/60944B29" Ref="#PWR?"  Part="1" 
AR Path="/5F8AD0E2/5F7FB5B8/60944B29" Ref="#PWR?"  Part="1" 
AR Path="/5FA85ABF/5F7FB5B8/60944B29" Ref="#PWR?"  Part="1" 
AR Path="/5F8D661A/60944B29" Ref="#PWR?"  Part="1" 
AR Path="/608DBC3C/60930C19/60930D3D/60944B29" Ref="#PWR?"  Part="1" 
AR Path="/608DBC3C/60930C19/60944B29" Ref="#PWR013"  Part="1" 
AR Path="/60CB1E03/60CBA5B1/60CBBE2B/60944B29" Ref="#PWR?"  Part="1" 
F 0 "#PWR?" H 3100 5250 50  0001 C CNN
F 1 "GND" V 3105 5372 50  0000 R CNN
F 2 "" H 3100 5500 50  0001 C CNN
F 3 "" H 3100 5500 50  0001 C CNN
	1    3100 5500
	0    1    1    0   
$EndComp
Wire Wire Line
	3100 5500 3200 5500
Wire Wire Line
	3500 5500 3650 5500
Wire Wire Line
	3650 5500 3650 5800
Text Notes 3950 7450 0    50   ~ 0
Bemerkung 1:\nPin 15, RS232:\nWenn high, wird RxD invertiert, \num direkt die RS232-Leitungen zu kontaktieren. 
Text Notes 2800 6250 0    50   ~ 0
siehe Bem.1
Wire Wire Line
	3750 5100 3750 5500
Text Label 2650 6300 0    50   ~ 0
D+
Text Label 2650 6400 0    50   ~ 0
D-
Wire Wire Line
	1450 6700 1450 6750
Wire Wire Line
	2250 4200 2250 4400
$Comp
L power:GND #PWR?
U 1 1 60944B96
P 3750 7250
AR Path="/5F8674B3/60944B96" Ref="#PWR?"  Part="1" 
AR Path="/5F8D661A/60944B96" Ref="#PWR?"  Part="1" 
AR Path="/608DBC3C/60930C19/60930D3D/60944B96" Ref="#PWR?"  Part="1" 
AR Path="/608DBC3C/60930C19/60944B96" Ref="#PWR016"  Part="1" 
AR Path="/60CB1E03/60CBA5B1/60CBBE2B/60944B96" Ref="#PWR?"  Part="1" 
F 0 "#PWR?" H 3750 7000 50  0001 C CNN
F 1 "GND" H 3754 7095 50  0000 C CNN
F 2 "" H 3750 7250 50  0001 C CNN
F 3 "" H 3750 7250 50  0001 C CNN
	1    3750 7250
	1    0    0    -1  
$EndComp
$Comp
L power:GND #PWR?
U 1 1 60944BA2
P 1550 6800
AR Path="/5F8674B3/60944BA2" Ref="#PWR?"  Part="1" 
AR Path="/5F8D661A/60944BA2" Ref="#PWR?"  Part="1" 
AR Path="/608DBC3C/60930C19/60930D3D/60944BA2" Ref="#PWR?"  Part="1" 
AR Path="/608DBC3C/60930C19/60944BA2" Ref="#PWR09"  Part="1" 
AR Path="/60CB1E03/60CBA5B1/60CBBE2B/60944BA2" Ref="#PWR?"  Part="1" 
F 0 "#PWR?" H 1550 6550 50  0001 C CNN
F 1 "GND" H 1554 6645 50  0000 C CNN
F 2 "" H 1550 6800 50  0001 C CNN
F 3 "" H 1550 6800 50  0001 C CNN
	1    1550 6800
	1    0    0    -1  
$EndComp
$Comp
L htl_passives:R_sig R?
U 1 1 60944BC1
P 4650 6000
AR Path="/608DBC3C/60930C19/60930D3D/60944BC1" Ref="R?"  Part="1" 
AR Path="/608DBC3C/60930C19/60944BC1" Ref="R13"  Part="1" 
AR Path="/60CB1E03/60CBA5B1/60CBBE2B/60944BC1" Ref="R?"  Part="1" 
F 0 "R?" V 4857 6000 50  0000 C CNN
F 1 "1k" V 4766 6000 50  0000 C CNN
F 2 "Resistor_SMD:R_1206_3216Metric" V 4580 6000 50  0001 C CNN
F 3 "" H 4650 6000 50  0001 C CNN
F 4 "C104601" H 4650 6000 50  0001 C CNN "DistOrderNr"
F 5 "LCSC" H 4650 6000 50  0001 C CNN "Distributor"
F 6 "RTT03101JTP" H 4650 6000 50  0001 C CNN "ManPartNr"
F 7 "RALEC" H 4650 6000 50  0001 C CNN "Manufacturer"
F 8 "1kΩ ±5% 0.25W ±100ppm/℃ 1206 Chip Resistor" H 4650 6000 50  0001 C CNN "Notes"
F 9 "0.0042" H 4650 6000 50  0001 C CNN "PriceEUR"
F 10 "50" H 4650 6000 50  0001 C CNN "PriceForQty"
	1    4650 6000
	0    -1   -1   0   
$EndComp
$Comp
L htl_passives:R_sig R?
U 1 1 60944BCF
P 4650 6100
AR Path="/608DBC3C/60930C19/60930D3D/60944BCF" Ref="R?"  Part="1" 
AR Path="/608DBC3C/60930C19/60944BCF" Ref="R14"  Part="1" 
AR Path="/60CB1E03/60CBA5B1/60CBBE2B/60944BCF" Ref="R?"  Part="1" 
F 0 "R?" V 4765 6100 50  0000 C CNN
F 1 "100R" V 4856 6100 50  0000 C CNN
F 2 "Resistor_SMD:R_1206_3216Metric" V 4580 6100 50  0001 C CNN
F 3 "" H 4650 6100 50  0001 C CNN
F 4 "C113307" H 4650 6100 50  0001 C CNN "DistOrderNr"
F 5 "LCSC" H 4650 6100 50  0001 C CNN "Distributor"
F 6 "RC1206JR-07100RL" H 4650 6100 50  0001 C CNN "ManPartNr"
F 7 "YAGEO" H 4650 6100 50  0001 C CNN "Manufacturer"
F 8 "100Ω ±5% 0.25W ±100ppm/℃ 1206 Chip Resistor" H 4650 6100 50  0001 C CNN "Notes"
F 9 "0.0037" H 4650 6100 50  0001 C CNN "PriceEUR"
F 10 "500" H 4650 6100 50  0001 C CNN "PriceForQty"
	1    4650 6100
	0    1    1    0   
$EndComp
Connection ~ 1550 6750
Wire Wire Line
	1550 6750 1550 6700
Wire Wire Line
	4150 6300 4200 6300
Wire Wire Line
	4200 6300 4200 6400
Wire Wire Line
	4200 6600 4150 6600
Wire Wire Line
	4150 6500 4200 6500
Connection ~ 4200 6500
Wire Wire Line
	4200 6500 4200 6600
Wire Wire Line
	4150 6400 4200 6400
Connection ~ 4200 6400
Wire Wire Line
	4200 6400 4200 6500
$Comp
L power:GND #PWR?
U 1 1 60944BE8
P 4300 6500
AR Path="/5F8674B3/60944BE8" Ref="#PWR?"  Part="1" 
AR Path="/5F8D661A/60944BE8" Ref="#PWR?"  Part="1" 
AR Path="/608DBC3C/60930C19/60930D3D/60944BE8" Ref="#PWR?"  Part="1" 
AR Path="/608DBC3C/60930C19/60944BE8" Ref="#PWR018"  Part="1" 
AR Path="/60CB1E03/60CBA5B1/60CBBE2B/60944BE8" Ref="#PWR?"  Part="1" 
F 0 "#PWR?" H 4300 6250 50  0001 C CNN
F 1 "GND" H 4304 6345 50  0000 C CNN
F 2 "" H 4300 6500 50  0001 C CNN
F 3 "" H 4300 6500 50  0001 C CNN
	1    4300 6500
	0    -1   -1   0   
$EndComp
Wire Wire Line
	4300 6500 4200 6500
Text Notes 4550 6550 0    50   ~ 0
Terminate unused inputs
$Comp
L htl_ics:ATmega328P-AU U?
U 1 1 60948156
P 4500 3450
F 0 "U?" H 4050 5000 50  0000 C CNN
F 1 "ATmega328P-AU" H 4000 4900 50  0000 C CNN
F 2 "Package_QFP:TQFP-32_7x7mm_P0.8mm" H 4500 3450 50  0001 C CIN
F 3 "http://ww1.microchip.com/downloads/en/DeviceDoc/ATmega328_P%20AVR%20MCU%20with%20picoPower%20Technology%20Data%20Sheet%2040001984A.pdf" H 4500 3450 50  0001 C CNN
F 4 "ATmega328" H 4500 3450 50  0001 C CNN "DistOrderNr"
F 5 "MKZ" H 4500 3450 50  0001 C CNN "Distributor"
F 6 "ATmega328P-AU" H 4500 3450 50  0001 C CNN "ManPartNr"
F 7 "Microchip (ATMEL)" H 4500 3450 50  0001 C CNN "Manufacturer"
F 8 "AVR Mikrocontroller, 16MHz, 32kByte Flash, 2kByte RAM, 1kByte EEPROM" H 4500 3450 50  0001 C CNN "Notes"
F 9 "1.0" H 4500 3450 50  0001 C CNN "PriceEUR"
F 10 "1" H 4500 3450 50  0001 C CNN "PriceForQty"
	1    4500 3450
	1    0    0    -1  
$EndComp
$Comp
L Device:R R?
U 1 1 6094CC77
P 6300 3500
AR Path="/5F64F622/6094CC77" Ref="R?"  Part="1" 
AR Path="/5F78AFC8/6094CC77" Ref="R?"  Part="1" 
AR Path="/5F7F8851/5F7FB5B8/6094CC77" Ref="R?"  Part="1" 
AR Path="/5F8070C3/5F7FB5B8/6094CC77" Ref="R?"  Part="1" 
AR Path="/5F8AD0E2/5F7FB5B8/6094CC77" Ref="R?"  Part="1" 
AR Path="/5FA85ABF/5F7FB5B8/6094CC77" Ref="R?"  Part="1" 
AR Path="/5F8D661A/6094CC77" Ref="R?"  Part="1" 
AR Path="/608DBC3C/60930C19/60930D3D/6094CC77" Ref="R?"  Part="1" 
AR Path="/608DBC3C/60930C19/6094CC77" Ref="R17"  Part="1" 
AR Path="/60CB1E03/60CBA5B1/60CBBE2B/6094CC77" Ref="R?"  Part="1" 
F 0 "R?" H 6230 3454 50  0000 R CNN
F 1 "1k" H 6230 3545 50  0000 R CNN
F 2 "Resistor_SMD:R_1206_3216Metric" V 6230 3500 50  0001 C CNN
F 3 "https://datasheet.lcsc.com/szlcsc/Uniroyal-Elec-0603WAJ0101T5E_C25201.pdf" H 6300 3500 50  0001 C CNN
F 4 "C104601" H 6300 3500 50  0001 C CNN "DistOrderNr"
F 5 "LCSC" H 6300 3500 50  0001 C CNN "Distributor"
F 6 "RTT03101JTP" H 6300 3500 50  0001 C CNN "ManPartNr"
F 7 "RALEC" H 6300 3500 50  0001 C CNN "Manufacturer"
F 8 "1kΩ ±5% 0.25W ±100ppm/℃ 1206 Chip Resistor" H 6300 3500 50  0001 C CNN "Notes"
F 9 "0.0042" H 6300 3500 50  0001 C CNN "PriceEUR"
F 10 "50" H 6300 3500 50  0001 C CNN "PriceForQty"
F 11 "https://lcsc.com/product-detail/Chip-Resistor-Surface-Mount_UNI-ROYAL-Uniroyal-Elec-0603WAJ0101T5E_C25201.html" H 6300 3500 50  0001 C CNN "Weblink"
	1    6300 3500
	-1   0    0    1   
$EndComp
Wire Wire Line
	5100 3750 5900 3750
Wire Wire Line
	6300 3750 6300 3650
Wire Wire Line
	3500 5100 3750 5100
Text Label 2600 4200 0    50   ~ 0
+5V
$Comp
L htl_semiconductors:D_Schottky D?
U 1 1 6094FFFE
P 2250 4550
F 0 "D?" V 2204 4628 50  0000 L CNN
F 1 "SS210" V 2295 4628 50  0000 L CNN
F 2 "htl_smd:D_SMA_wide" H 2250 4550 50  0001 C CNN
F 3 "~" H 2250 4550 50  0001 C CNN
F 4 "C2683692" H 2250 4550 50  0001 C CNN "DistOrderNr"
F 5 "LCSC" H 2250 4550 50  0001 C CNN "Distributor"
F 6 "SS210A-W" H 2250 4550 50  0001 C CNN "ManPartNr"
F 7 "ZHIDE" H 2250 4550 50  0001 C CNN "Manufacturer"
F 8 "100V 2A 850mV @ 2A SMA(DO-214AC) Schottky Barrier Diodes" H 2250 4550 50  0001 C CNN "Notes"
F 9 "0.0155" H 2250 4550 50  0001 C CNN "PriceEUR"
F 10 "200" H 2250 4550 50  0001 C CNN "PriceForQty"
	1    2250 4550
	0    1    1    0   
$EndComp
Wire Wire Line
	2250 4700 2250 4950
Wire Wire Line
	2250 4200 2600 4200
Wire Wire Line
	1850 6400 3350 6400
Wire Wire Line
	1850 6300 3350 6300
Wire Wire Line
	6100 3250 6300 3250
Wire Wire Line
	6300 3250 6300 3350
$Comp
L Device:C C?
U 1 1 60958EDB
P 7200 4550
AR Path="/5F64F622/60958EDB" Ref="C?"  Part="1" 
AR Path="/5F78AFC8/60958EDB" Ref="C?"  Part="1" 
AR Path="/5F7F8851/5F7FB5B8/60958EDB" Ref="C?"  Part="1" 
AR Path="/5F8070C3/5F7FB5B8/60958EDB" Ref="C?"  Part="1" 
AR Path="/5F8AD0E2/5F7FB5B8/60958EDB" Ref="C?"  Part="1" 
AR Path="/5FA85ABF/5F7FB5B8/60958EDB" Ref="C?"  Part="1" 
AR Path="/5F8D661A/60958EDB" Ref="C?"  Part="1" 
AR Path="/608DBC3C/60930C19/60930D3D/60958EDB" Ref="C?"  Part="1" 
AR Path="/608DBC3C/60930C19/60958EDB" Ref="C14"  Part="1" 
AR Path="/60CB1E03/60CBA5B1/60CBBE2B/60958EDB" Ref="C?"  Part="1" 
F 0 "C?" H 7085 4504 50  0000 R CNN
F 1 "100n" H 7085 4595 50  0000 R CNN
F 2 "Capacitor_SMD:C_1206_3216Metric" H 7238 4400 50  0001 C CNN
F 3 "https://datasheet.lcsc.com/szlcsc/1811151136_Walsin-Tech-Corp-0603B104K160CT_C80516.pdf" H 7200 4550 50  0001 C CNN
F 4 "LCSC" H 7200 4550 50  0001 C CNN "Distributor"
F 5 "PSA(Prosperity Dielectrics)" H 7200 4550 50  0001 C CNN "Manufacturer"
F 6 "100nF ±10% 50V X7R Multilayer Ceramic Capacitors MLCC" H 7200 4550 50  0001 C CNN "Notes"
F 7 "" H 7200 4550 50  0001 C CNN "OrderNr"
F 8 "" H 7200 4550 50  0001 C CNN "PartNr"
F 9 "0.0093" H 7200 4550 50  0001 C CNN "PriceEUR"
F 10 "500" H 7200 4550 50  0001 C CNN "PriceForQty"
F 11 "https://lcsc.com/product-detail/Multilayer-Ceramic-Capacitors-MLCC-SMD-SMT_Walsin-Tech-Corp-0603B104K160CT_C80516.html" H 7200 4550 50  0001 C CNN "Weblink"
F 12 "C464972" H 7200 4550 50  0001 C CNN "DistOrderNr"
F 13 "FN31X104K500PXG" H 7200 4550 50  0001 C CNN "ManPartNr"
	1    7200 4550
	-1   0    0    1   
$EndComp
Connection ~ 6300 3750
Wire Wire Line
	7200 3750 7200 4400
Wire Wire Line
	4150 6700 6250 6700
NoConn ~ 4150 6800
Wire Wire Line
	2250 4950 2450 4950
Connection ~ 2250 4950
Wire Wire Line
	2250 4950 2250 6100
Text Label 2600 4950 0    50   ~ 0
VUSB
Wire Wire Line
	1450 6750 1550 6750
Text Label 3500 5100 0    50   ~ 0
+5V
Wire Wire Line
	5100 4050 5950 4050
Wire Wire Line
	5950 4050 5950 6100
Wire Wire Line
	4800 6100 5950 6100
Wire Wire Line
	5850 3950 5100 3950
Wire Wire Line
	4800 6000 5850 6000
Wire Wire Line
	5850 3950 7900 3950
Connection ~ 5850 3950
Text HLabel 7900 3950 2    50   Input ~ 0
D0_RX
Text HLabel 7900 4050 2    50   Output ~ 0
D1_TX
Wire Wire Line
	5950 4050 7900 4050
Connection ~ 5950 4050
Text HLabel 5200 4150 2    50   BiDi ~ 0
D2
Text HLabel 5200 4250 2    50   BiDi ~ 0
D3
Text HLabel 5200 4350 2    50   BiDi ~ 0
D4
Text HLabel 5200 4450 2    50   BiDi ~ 0
D5
Text HLabel 5200 4550 2    50   BiDi ~ 0
D6
Text HLabel 5200 4650 2    50   BiDi ~ 0
D7
Text HLabel 5200 2250 2    50   BiDi ~ 0
D8
Text HLabel 5200 2350 2    50   BiDi ~ 0
D9
Text HLabel 5200 2450 2    50   BiDi ~ 0
D10
Text HLabel 6750 2550 2    50   BiDi ~ 0
D11_MOSI
Text HLabel 6750 2650 2    50   BiDi ~ 0
D12_MISO
Text HLabel 6750 2750 2    50   BiDi ~ 0
D13_SCK
Wire Wire Line
	5200 4150 5100 4150
Wire Wire Line
	5200 4250 5100 4250
Wire Wire Line
	5200 4350 5100 4350
Wire Wire Line
	5200 4450 5100 4450
Wire Wire Line
	5200 4550 5100 4550
Wire Wire Line
	5200 4650 5100 4650
Wire Wire Line
	5200 2250 5100 2250
Wire Wire Line
	5200 2350 5100 2350
Wire Wire Line
	5200 2450 5100 2450
$Comp
L Device:Crystal_GND24 Y?
U 1 1 6097DBD8
P 7950 2900
F 0 "Y?" V 8150 3150 50  0000 R CNN
F 1 "16MHz" V 8150 2800 50  0000 R CNN
F 2 "Crystal:Crystal_SMD_3225-4Pin_3.2x2.5mm" H 7950 2900 50  0001 C CNN
F 3 "~" H 7950 2900 50  0001 C CNN
F 4 "C357882" H 7950 2900 50  0001 C CNN "DistOrderNr"
F 5 "LCSC" H 7950 2900 50  0001 C CNN "Distributor"
F 6 "JYXT32S4-016.00000-93C4C0" H 7950 2900 50  0001 C CNN "ManPartNr"
F 7 "Guangzhou Jingyou Electronic Tech" H 7950 2900 50  0001 C CNN "Manufacturer"
F 8 "16MHz ±10ppm 12pF 40Ω SMD-3225 SMD Crystal Resonators" H 7950 2900 50  0001 C CNN "Notes"
F 9 "0.0884" H 7950 2900 50  0001 C CNN "PriceEUR"
F 10 "50" H 7950 2900 50  0001 C CNN "PriceForQty"
	1    7950 2900
	0    -1   -1   0   
$EndComp
Text Notes 8850 3050 1    50   ~ 0
C: 12~~22pf, laut \nDatenblatt ATmega328P
$Comp
L power:GND #PWR?
U 1 1 6097EB57
P 7700 2900
F 0 "#PWR?" H 7700 2650 50  0001 C CNN
F 1 "GND" V 7705 2772 50  0000 R CNN
F 2 "" H 7700 2900 50  0001 C CNN
F 3 "" H 7700 2900 50  0001 C CNN
	1    7700 2900
	0    1    1    0   
$EndComp
$Comp
L power:GND #PWR?
U 1 1 60980621
P 8250 2900
F 0 "#PWR?" H 8250 2650 50  0001 C CNN
F 1 "GND" V 8255 2772 50  0000 R CNN
F 2 "" H 8250 2900 50  0001 C CNN
F 3 "" H 8250 2900 50  0001 C CNN
	1    8250 2900
	0    -1   -1   0   
$EndComp
$Comp
L Device:C C?
U 1 1 6098211B
P 8200 3200
F 0 "C?" V 8040 3200 50  0000 C CNN
F 1 "12p" V 7949 3200 50  0000 C CNN
F 2 "Capacitor_SMD:C_1206_3216Metric" H 8238 3050 50  0001 C CNN
F 3 "~" H 8200 3200 50  0001 C CNN
F 4 "C113882" H 8200 3200 50  0001 C CNN "DistOrderNr"
F 5 "LCSC" H 8200 3200 50  0001 C CNN "Distributor"
F 6 "CC1206JRNPO9BN120" H 8200 3200 50  0001 C CNN "ManPartNr"
F 7 "YAGEO" H 8200 3200 50  0001 C CNN "Manufacturer"
F 8 "12pF NP0 Keramikkonensator" H 8200 3200 50  0001 C CNN "Notes"
F 9 "0.024" H 8200 3200 50  0001 C CNN "PriceEUR"
F 10 "20" H 8200 3200 50  0001 C CNN "PriceForQty"
	1    8200 3200
	0    -1   -1   0   
$EndComp
$Comp
L power:GND #PWR?
U 1 1 609828E9
P 8450 3200
F 0 "#PWR?" H 8450 2950 50  0001 C CNN
F 1 "GND" H 8455 3027 50  0000 C CNN
F 2 "" H 8450 3200 50  0001 C CNN
F 3 "" H 8450 3200 50  0001 C CNN
	1    8450 3200
	0    -1   -1   0   
$EndComp
Wire Wire Line
	8450 3200 8350 3200
Wire Wire Line
	7950 3200 7950 3050
Wire Wire Line
	8050 3200 7950 3200
$Comp
L Device:C C?
U 1 1 60984FE1
P 8200 2350
F 0 "C?" V 8452 2350 50  0000 C CNN
F 1 "12p" V 8361 2350 50  0000 C CNN
F 2 "Capacitor_SMD:C_1206_3216Metric" H 8238 2200 50  0001 C CNN
F 3 "~" H 8200 2350 50  0001 C CNN
F 4 "C113882" H 8200 2350 50  0001 C CNN "DistOrderNr"
F 5 "LCSC" H 8200 2350 50  0001 C CNN "Distributor"
F 6 "CC1206JRNPO9BN120" H 8200 2350 50  0001 C CNN "ManPartNr"
F 7 "YAGEO" H 8200 2350 50  0001 C CNN "Manufacturer"
F 8 "12pF NP0 Keramikkonensator" H 8200 2350 50  0001 C CNN "Notes"
F 9 "0.024" H 8200 2350 50  0001 C CNN "PriceEUR"
F 10 "20" H 8200 2350 50  0001 C CNN "PriceForQty"
	1    8200 2350
	0    -1   -1   0   
$EndComp
$Comp
L power:GND #PWR?
U 1 1 60984FE7
P 8450 2350
F 0 "#PWR?" H 8450 2100 50  0001 C CNN
F 1 "GND" H 8455 2177 50  0000 C CNN
F 2 "" H 8450 2350 50  0001 C CNN
F 3 "" H 8450 2350 50  0001 C CNN
	1    8450 2350
	0    -1   -1   0   
$EndComp
Wire Wire Line
	8450 2350 8350 2350
Wire Wire Line
	7950 2350 7950 2750
Wire Wire Line
	8050 2350 7950 2350
Wire Wire Line
	7950 2350 7300 2350
Wire Wire Line
	7300 2350 7300 2850
Wire Wire Line
	7300 2850 5100 2850
Connection ~ 7950 2350
Wire Wire Line
	5100 2950 7300 2950
Wire Wire Line
	7300 2950 7300 3200
Wire Wire Line
	7300 3200 7950 3200
Connection ~ 7950 3200
Wire Wire Line
	7700 2900 7750 2900
Wire Wire Line
	8150 2900 8250 2900
Text Label 6100 3250 0    50   ~ 0
+5V
$Comp
L Switch:SW_Push SW?
U 1 1 6099C47A
P 6300 4550
AR Path="/608DBC3C/6099C47A" Ref="SW?"  Part="1" 
AR Path="/6099C47A" Ref="SW?"  Part="1" 
AR Path="/608DBC3C/60930C19/6099C47A" Ref="SW5"  Part="1" 
AR Path="/60CB1E03/60CBA5B1/60CBBE2B/6099C47A" Ref="SW?"  Part="1" 
F 0 "SW?" V 6346 4502 50  0000 R CNN
F 1 "Reset" V 6255 4502 50  0000 R CNN
F 2 "htl_smd:SW_Push_5.1mm_H1.5mm" H 6300 4750 50  0001 C CNN
F 3 "~" H 6300 4750 50  0001 C CNN
F 4 "C318884" H 6300 4550 50  0001 C CNN "DistOrderNr"
F 5 "LCSC" H 6300 4550 50  0001 C CNN "Distributor"
F 6 "TS-1187A-B-A-B" H 6300 4550 50  0001 C CNN "ManPartNr"
F 7 "XKB Connectivity" H 6300 4550 50  0001 C CNN "Manufacturer"
F 8 "SPST 50mA @ 12VDC Vertical Round Button 160gf SMD Tactile Switches" H 6300 4550 50  0001 C CNN "Notes"
F 9 "0.01" H 6300 4550 50  0001 C CNN "PriceEUR"
F 10 "500" H 6300 4550 50  0001 C CNN "PriceForQty"
F 11 "https://lcsc.com/product-detail/Tactile-Switches_XKB-Connectivity-TS-1187A-B-A-B_C318884.html" H 6300 4550 50  0001 C CNN "Weblink"
	1    6300 4550
	0    -1   -1   0   
$EndComp
Wire Wire Line
	6300 4350 6300 4200
$Comp
L power:GND #PWR?
U 1 1 609A896E
P 6300 4750
F 0 "#PWR?" H 6300 4500 50  0001 C CNN
F 1 "GND" H 6305 4577 50  0000 C CNN
F 2 "" H 6300 4750 50  0001 C CNN
F 3 "" H 6300 4750 50  0001 C CNN
	1    6300 4750
	1    0    0    -1  
$EndComp
$Comp
L Device:C C?
U 1 1 609A9798
P 4950 1600
AR Path="/5F64F622/609A9798" Ref="C?"  Part="1" 
AR Path="/5F78AFC8/609A9798" Ref="C?"  Part="1" 
AR Path="/5F7F8851/5F7FB5B8/609A9798" Ref="C?"  Part="1" 
AR Path="/5F8070C3/5F7FB5B8/609A9798" Ref="C?"  Part="1" 
AR Path="/5F8AD0E2/5F7FB5B8/609A9798" Ref="C?"  Part="1" 
AR Path="/5FA85ABF/5F7FB5B8/609A9798" Ref="C?"  Part="1" 
AR Path="/5F8D661A/609A9798" Ref="C?"  Part="1" 
AR Path="/608DBC3C/60930C19/60930D3D/609A9798" Ref="C?"  Part="1" 
AR Path="/608DBC3C/60930C19/609A9798" Ref="C12"  Part="1" 
AR Path="/60CB1E03/60CBA5B1/60CBBE2B/609A9798" Ref="C?"  Part="1" 
F 0 "C?" H 4835 1554 50  0000 R CNN
F 1 "100n" H 4835 1645 50  0000 R CNN
F 2 "Capacitor_SMD:C_1206_3216Metric" H 4988 1450 50  0001 C CNN
F 3 "https://datasheet.lcsc.com/szlcsc/1811151136_Walsin-Tech-Corp-0603B104K160CT_C80516.pdf" H 4950 1600 50  0001 C CNN
F 4 "LCSC" H 4950 1600 50  0001 C CNN "Distributor"
F 5 "PSA(Prosperity Dielectrics)" H 4950 1600 50  0001 C CNN "Manufacturer"
F 6 "100nF ±10% 50V X7R Multilayer Ceramic Capacitors MLCC" H 4950 1600 50  0001 C CNN "Notes"
F 7 "" H 4950 1600 50  0001 C CNN "OrderNr"
F 8 "" H 4950 1600 50  0001 C CNN "PartNr"
F 9 "0.0093" H 4950 1600 50  0001 C CNN "PriceEUR"
F 10 "500" H 4950 1600 50  0001 C CNN "PriceForQty"
F 11 "https://lcsc.com/product-detail/Multilayer-Ceramic-Capacitors-MLCC-SMD-SMT_Walsin-Tech-Corp-0603B104K160CT_C80516.html" H 4950 1600 50  0001 C CNN "Weblink"
F 12 "C464972" H 4950 1600 50  0001 C CNN "DistOrderNr"
F 13 "FN31X104K500PXG" H 4950 1600 50  0001 C CNN "ManPartNr"
	1    4950 1600
	-1   0    0    1   
$EndComp
Wire Wire Line
	3900 2250 3200 2250
Wire Wire Line
	3200 2250 3200 2350
Wire Wire Line
	3200 2650 3200 2750
$Comp
L power:GND #PWR?
U 1 1 609ACB68
P 3200 2750
F 0 "#PWR?" H 3200 2500 50  0001 C CNN
F 1 "GND" H 3205 2577 50  0000 C CNN
F 2 "" H 3200 2750 50  0001 C CNN
F 3 "" H 3200 2750 50  0001 C CNN
	1    3200 2750
	1    0    0    -1  
$EndComp
Text HLabel 5200 3150 2    50   BiDi ~ 0
A0
Text HLabel 5200 3250 2    50   BiDi ~ 0
A1
Text HLabel 5200 3350 2    50   BiDi ~ 0
A2
Text HLabel 5200 3450 2    50   BiDi ~ 0
A3
Text HLabel 5200 3550 2    50   BiDi ~ 0
A4
Text HLabel 5200 3650 2    50   BiDi ~ 0
A5
Text HLabel 3800 2450 0    50   BiDi ~ 0
A6
Text HLabel 3800 2550 0    50   BiDi ~ 0
A7
Wire Wire Line
	5100 3150 5200 3150
Wire Wire Line
	5100 3250 5200 3250
Wire Wire Line
	5100 3350 5200 3350
Wire Wire Line
	5100 3450 5200 3450
Wire Wire Line
	5100 3550 5200 3550
Wire Wire Line
	5100 3650 5200 3650
Wire Wire Line
	3800 2450 3900 2450
Wire Wire Line
	3900 2550 3800 2550
Text HLabel 3050 2250 0    50   UnSpc ~ 0
AREF
Wire Wire Line
	3050 2250 3200 2250
Connection ~ 3200 2250
$Comp
L Device:R R?
U 1 1 609D8AC2
P 1550 3150
AR Path="/608DBC83/609D8AC2" Ref="R?"  Part="1" 
AR Path="/608DBC83/60A447A8/609D8AC2" Ref="R?"  Part="1" 
AR Path="/608DBC3C/60930C19/609D8AC2" Ref="R10"  Part="1" 
AR Path="/60CB1E03/60CBA5B1/60CBBE2B/609D8AC2" Ref="R?"  Part="1" 
F 0 "R?" H 1620 3196 50  0000 L CNN
F 1 "3k3" H 1620 3105 50  0000 L CNN
F 2 "Resistor_SMD:R_1206_3216Metric" V 1480 3150 50  0001 C CNN
F 3 "~" H 1550 3150 50  0001 C CNN
F 4 "0.01" H 1550 3150 50  0001 C CNN "PriceEUR"
F 5 "C229599" H 1550 3150 50  0001 C CNN "DistOrderNr"
F 6 "LCSC" H 1550 3150 50  0001 C CNN "Distributor"
	1    1550 3150
	1    0    0    -1  
$EndComp
$Comp
L Device:LED D?
U 1 1 609D8ACD
P 1550 3550
AR Path="/608DBC83/609D8ACD" Ref="D?"  Part="1" 
AR Path="/608DBC83/60A447A8/609D8ACD" Ref="D?"  Part="1" 
AR Path="/608DBC3C/60930C19/609D8ACD" Ref="D3"  Part="1" 
AR Path="/60CB1E03/60CBA5B1/60CBBE2B/609D8ACD" Ref="D?"  Part="1" 
F 0 "D?" V 1589 3432 50  0000 R CNN
F 1 "grün" V 1498 3432 50  0000 R CNN
F 2 "LED_SMD:LED_1206_3216Metric" H 1550 3550 50  0001 C CNN
F 3 "~" H 1550 3550 50  0001 C CNN
F 4 "LCSC" H 1550 3550 50  0001 C CNN "Distributor"
F 5 "C965825" H 1550 3550 50  0001 C CNN "DistOrderNr"
F 6 "https://lcsc.com/product-detail/Pre-ordered-Products_XINGLIGHT-XL-3216UGC_C965825.html" H 1550 3550 50  0001 C CNN "Weblink"
F 7 "0.0067" H 1550 3550 50  0001 C CNN "PriceEUR"
F 8 "50" H 1550 3550 50  0001 C CNN "PriceForQty"
	1    1550 3550
	0    -1   -1   0   
$EndComp
Wire Wire Line
	1550 3400 1550 3300
Text Label 1250 2950 0    50   ~ 0
VUSB
Wire Wire Line
	1250 2950 1550 2950
Wire Wire Line
	1550 2950 1550 3000
$Comp
L power:GND #PWR?
U 1 1 609E02CF
P 1550 3800
F 0 "#PWR?" H 1550 3550 50  0001 C CNN
F 1 "GND" H 1555 3627 50  0000 C CNN
F 2 "" H 1550 3800 50  0001 C CNN
F 3 "" H 1550 3800 50  0001 C CNN
	1    1550 3800
	1    0    0    -1  
$EndComp
Wire Wire Line
	1550 3800 1550 3700
$Comp
L Device:R R?
U 1 1 609E3084
P 2050 3450
AR Path="/608DBC83/609E3084" Ref="R?"  Part="1" 
AR Path="/608DBC83/60A447A8/609E3084" Ref="R?"  Part="1" 
AR Path="/608DBC3C/60930C19/609E3084" Ref="R11"  Part="1" 
AR Path="/60CB1E03/60CBA5B1/60CBBE2B/609E3084" Ref="R?"  Part="1" 
F 0 "R?" H 2120 3496 50  0000 L CNN
F 1 "1k" H 2120 3405 50  0000 L CNN
F 2 "Resistor_SMD:R_1206_3216Metric" V 1980 3450 50  0001 C CNN
F 3 "~" H 2050 3450 50  0001 C CNN
F 4 "0.0042" H 2050 3450 50  0001 C CNN "PriceEUR"
F 5 "C104601" H 2050 3450 50  0001 C CNN "DistOrderNr"
F 6 "LCSC" H 2050 3450 50  0001 C CNN "Distributor"
F 7 "RTT03101JTP" H 2050 3450 50  0001 C CNN "ManPartNr"
F 8 "RALEC" H 2050 3450 50  0001 C CNN "Manufacturer"
F 9 "1kΩ ±5% 0.25W ±100ppm/℃ 1206 Chip Resistor" H 2050 3450 50  0001 C CNN "Notes"
F 10 "50" H 2050 3450 50  0001 C CNN "PriceForQty"
	1    2050 3450
	1    0    0    -1  
$EndComp
Wire Wire Line
	1550 2950 2050 2950
Wire Wire Line
	2050 2950 2050 3300
Connection ~ 1550 2950
$Comp
L power:GND #PWR?
U 1 1 609E607B
P 2050 3800
F 0 "#PWR?" H 2050 3550 50  0001 C CNN
F 1 "GND" H 2055 3627 50  0000 C CNN
F 2 "" H 2050 3800 50  0001 C CNN
F 3 "" H 2050 3800 50  0001 C CNN
	1    2050 3800
	1    0    0    -1  
$EndComp
Wire Wire Line
	2050 3800 2050 3600
Text Notes 2300 3700 0    50   ~ 0
Lastwiderstand\nfür ein sauberes \nLOW-Signal\nfür den Tristate-Treiber\nder RxD-TxD-Verbindung\nzur RS232
Wire Wire Line
	4500 1950 4500 1750
Wire Wire Line
	4500 1750 4600 1750
Wire Wire Line
	4600 1750 4600 1950
Text Label 3050 1350 0    50   ~ 0
+5V
Wire Wire Line
	3050 1350 3400 1350
Wire Wire Line
	4500 1350 4500 1750
Connection ~ 4500 1750
$Comp
L Device:C C?
U 1 1 609F24D5
P 2450 5100
AR Path="/608DBC6E/609F24D5" Ref="C?"  Part="1" 
AR Path="/608DBC3C/60930C19/609F24D5" Ref="C7"  Part="1" 
AR Path="/60CB1E03/60CBA5B1/60CBBE2B/609F24D5" Ref="C?"  Part="1" 
F 0 "C?" H 2565 5146 50  0000 L CNN
F 1 "1u" H 2565 5055 50  0000 L CNN
F 2 "Capacitor_SMD:C_1206_3216Metric" H 2488 4950 50  0001 C CNN
F 3 "~" H 2450 5100 50  0001 C CNN
F 4 "C1848" H 2450 5100 50  0001 C CNN "DistOrderNr"
F 5 "LCSC" H 2450 5100 50  0001 C CNN "Distributor"
F 6 "CL31B105KBHNNNE" H 2450 5100 50  0001 C CNN "ManPartNr"
F 7 "Samsung" H 2450 5100 50  0001 C CNN "Manufacturer"
F 8 "1uF ±10% 50V X7R Multilayer Ceramic Capacitors MLCC" H 2450 5100 50  0001 C CNN "Notes"
F 9 "0.0225" H 2450 5100 50  0001 C CNN "PriceEUR"
F 10 "100" H 2450 5100 50  0001 C CNN "PriceForQty"
	1    2450 5100
	1    0    0    -1  
$EndComp
$Comp
L power:GND #PWR?
U 1 1 609F5372
P 2450 5250
AR Path="/5F64F622/609F5372" Ref="#PWR?"  Part="1" 
AR Path="/5F78AFC8/609F5372" Ref="#PWR?"  Part="1" 
AR Path="/5F7F8851/5F7FB5B8/609F5372" Ref="#PWR?"  Part="1" 
AR Path="/5F8070C3/5F7FB5B8/609F5372" Ref="#PWR?"  Part="1" 
AR Path="/5F8AD0E2/5F7FB5B8/609F5372" Ref="#PWR?"  Part="1" 
AR Path="/5FA85ABF/5F7FB5B8/609F5372" Ref="#PWR?"  Part="1" 
AR Path="/5F8D661A/609F5372" Ref="#PWR?"  Part="1" 
AR Path="/608DBC3C/60930C19/60930D3D/609F5372" Ref="#PWR?"  Part="1" 
AR Path="/608DBC3C/60930C19/609F5372" Ref="#PWR011"  Part="1" 
AR Path="/60CB1E03/60CBA5B1/60CBBE2B/609F5372" Ref="#PWR?"  Part="1" 
F 0 "#PWR?" H 2450 5000 50  0001 C CNN
F 1 "GND" H 2455 5077 50  0000 C CNN
F 2 "" H 2450 5250 50  0001 C CNN
F 3 "" H 2450 5250 50  0001 C CNN
	1    2450 5250
	1    0    0    -1  
$EndComp
Connection ~ 2450 4950
Wire Wire Line
	2450 4950 2600 4950
$Comp
L Device:C C?
U 1 1 609FC0C3
P 3200 2500
AR Path="/608DBC6E/609FC0C3" Ref="C?"  Part="1" 
AR Path="/608DBC3C/60930C19/609FC0C3" Ref="C8"  Part="1" 
AR Path="/60CB1E03/60CBA5B1/60CBBE2B/609FC0C3" Ref="C?"  Part="1" 
F 0 "C?" H 3315 2546 50  0000 L CNN
F 1 "1u" H 3315 2455 50  0000 L CNN
F 2 "Capacitor_SMD:C_1206_3216Metric" H 3238 2350 50  0001 C CNN
F 3 "~" H 3200 2500 50  0001 C CNN
F 4 "C1848" H 3200 2500 50  0001 C CNN "DistOrderNr"
F 5 "LCSC" H 3200 2500 50  0001 C CNN "Distributor"
F 6 "CL31B105KBHNNNE" H 3200 2500 50  0001 C CNN "ManPartNr"
F 7 "Samsung" H 3200 2500 50  0001 C CNN "Manufacturer"
F 8 "1uF ±10% 50V X7R Multilayer Ceramic Capacitors MLCC" H 3200 2500 50  0001 C CNN "Notes"
F 9 "0.0225" H 3200 2500 50  0001 C CNN "PriceEUR"
F 10 "100" H 3200 2500 50  0001 C CNN "PriceForQty"
	1    3200 2500
	1    0    0    -1  
$EndComp
Wire Wire Line
	4500 1350 4950 1350
Wire Wire Line
	4950 1350 4950 1450
Connection ~ 4500 1350
$Comp
L Device:C C?
U 1 1 60A0343E
P 5400 1600
AR Path="/608DBC6E/60A0343E" Ref="C?"  Part="1" 
AR Path="/608DBC3C/60930C19/60A0343E" Ref="C13"  Part="1" 
AR Path="/60CB1E03/60CBA5B1/60CBBE2B/60A0343E" Ref="C?"  Part="1" 
F 0 "C?" H 5515 1646 50  0000 L CNN
F 1 "1u" H 5515 1555 50  0000 L CNN
F 2 "Capacitor_SMD:C_1206_3216Metric" H 5438 1450 50  0001 C CNN
F 3 "~" H 5400 1600 50  0001 C CNN
F 4 "C1848" H 5400 1600 50  0001 C CNN "DistOrderNr"
F 5 "LCSC" H 5400 1600 50  0001 C CNN "Distributor"
F 6 "CL31B105KBHNNNE" H 5400 1600 50  0001 C CNN "ManPartNr"
F 7 "Samsung" H 5400 1600 50  0001 C CNN "Manufacturer"
F 8 "1uF ±10% 50V X7R Multilayer Ceramic Capacitors MLCC" H 5400 1600 50  0001 C CNN "Notes"
F 9 "0.0225" H 5400 1600 50  0001 C CNN "PriceEUR"
F 10 "100" H 5400 1600 50  0001 C CNN "PriceForQty"
	1    5400 1600
	1    0    0    -1  
$EndComp
Wire Wire Line
	4950 1350 5400 1350
Wire Wire Line
	5400 1350 5400 1450
Connection ~ 4950 1350
$Comp
L power:GND #PWR?
U 1 1 60A072CA
P 4500 5050
F 0 "#PWR?" H 4500 4800 50  0001 C CNN
F 1 "GND" H 4505 4877 50  0000 C CNN
F 2 "" H 4500 5050 50  0001 C CNN
F 3 "" H 4500 5050 50  0001 C CNN
	1    4500 5050
	1    0    0    -1  
$EndComp
Wire Wire Line
	4500 5050 4500 4950
$Comp
L power:GND #PWR?
U 1 1 60A0BA08
P 4950 1800
F 0 "#PWR?" H 4950 1550 50  0001 C CNN
F 1 "GND" H 4955 1627 50  0000 C CNN
F 2 "" H 4950 1800 50  0001 C CNN
F 3 "" H 4950 1800 50  0001 C CNN
	1    4950 1800
	1    0    0    -1  
$EndComp
Wire Wire Line
	4950 1800 4950 1750
$Comp
L power:GND #PWR?
U 1 1 60A0F4BE
P 5400 1800
F 0 "#PWR?" H 5400 1550 50  0001 C CNN
F 1 "GND" H 5405 1627 50  0000 C CNN
F 2 "" H 5400 1800 50  0001 C CNN
F 3 "" H 5400 1800 50  0001 C CNN
	1    5400 1800
	1    0    0    -1  
$EndComp
Wire Wire Line
	5400 1800 5400 1750
Text HLabel 1200 4950 0    50   Output ~ 0
VUSB
Wire Wire Line
	1200 4950 2250 4950
Text Label 1550 2400 0    50   ~ 0
+5V
Text HLabel 1200 2400 0    50   Input ~ 0
+5V
Wire Wire Line
	1200 2400 1550 2400
Text Notes 1250 2500 0    50   ~ 0
Versorgung aus Akku
Text Notes 950  7450 0    50   ~ 0
USB Typ-B, damit das Board ohne \nSMD-Schablone gefertigt werden kann, \nwas USB-C zwingend erfordern würde. 
Text Notes 1850 6900 0    50   ~ 0
TODO: Footprint USB-B prüfen
Text HLabel 7850 3750 2    50   UnSpc ~ 0
~RESET
Wire Wire Line
	7200 4700 7200 5300
Wire Wire Line
	6300 3750 7200 3750
Connection ~ 7200 3750
Wire Wire Line
	5100 2550 6650 2550
Wire Wire Line
	5100 2650 5700 2650
Wire Wire Line
	5100 2750 5800 2750
Wire Wire Line
	7200 3750 7850 3750
$Comp
L Connector_Generic:Conn_02x03_Odd_Even J?
U 1 1 60ABA01D
P 6200 1350
F 0 "J?" H 6250 1667 50  0000 C CNN
F 1 "AVR ISP" H 6250 1576 50  0000 C CNN
F 2 "Connector_IDC:IDC-Header_2x03_P2.54mm_Vertical" H 6200 1350 50  0001 C CNN
F 3 "~" H 6200 1350 50  0001 C CNN
F 4 "C132438" H 6200 1350 50  0001 C CNN "DistOrderNr"
F 5 "LCSC" H 6200 1350 50  0001 C CNN "Distributor"
F 6 "Wannenstecker 2x3 Pins, 2.54mm Raster, vertikal" H 6200 1350 50  0001 C CNN "Notes"
F 7 "0.0698" H 6200 1350 50  0001 C CNN "PriceEUR"
F 8 "50" H 6200 1350 50  0001 C CNN "PriceForQty"
	1    6200 1350
	1    0    0    -1  
$EndComp
Wire Wire Line
	6000 1250 5700 1250
Wire Wire Line
	5700 1250 5700 1800
Connection ~ 5700 2650
Wire Wire Line
	5700 2650 6750 2650
Wire Wire Line
	6000 1350 5800 1350
Wire Wire Line
	5800 1350 5800 1800
Connection ~ 5800 2750
Wire Wire Line
	5800 2750 6750 2750
Wire Wire Line
	6000 1450 5900 1450
Wire Wire Line
	5900 1450 5900 3750
Connection ~ 5900 3750
Wire Wire Line
	5900 3750 6300 3750
Text Label 6600 1100 0    50   ~ 0
+5V
Wire Wire Line
	6600 1100 6950 1100
Wire Wire Line
	6950 1100 6950 1250
Wire Wire Line
	6950 1250 6500 1250
Wire Wire Line
	6500 1350 6650 1350
Wire Wire Line
	6650 1350 6650 1800
Connection ~ 6650 2550
Wire Wire Line
	6650 2550 6750 2550
$Comp
L power:GND #PWR?
U 1 1 60AD8B6E
P 6500 1600
F 0 "#PWR?" H 6500 1350 50  0001 C CNN
F 1 "GND" H 6505 1427 50  0000 C CNN
F 2 "" H 6500 1600 50  0001 C CNN
F 3 "" H 6500 1600 50  0001 C CNN
	1    6500 1600
	1    0    0    -1  
$EndComp
Wire Wire Line
	6500 1600 6500 1450
Text Notes 6750 1550 0    50   ~ 0
Programmierstecker um\nden Arduino Nano Bootloader\naufspielen zu können. 
$Comp
L htl_passives:R_sig R?
U 1 1 60AEF7FD
P 5800 1950
AR Path="/608DBC3C/60930C19/60930D3D/60AEF7FD" Ref="R?"  Part="1" 
AR Path="/608DBC3C/60930C19/60AEF7FD" Ref="R16"  Part="1" 
AR Path="/60CB1E03/60CBA5B1/60CBBE2B/60AEF7FD" Ref="R?"  Part="1" 
F 0 "R?" H 5650 2050 50  0000 R CNN
F 1 "100R" H 5650 2150 50  0000 R CNN
F 2 "Resistor_SMD:R_1206_3216Metric" V 5730 1950 50  0001 C CNN
F 3 "" H 5800 1950 50  0001 C CNN
F 4 "C113307" H 5800 1950 50  0001 C CNN "DistOrderNr"
F 5 "LCSC" H 5800 1950 50  0001 C CNN "Distributor"
F 6 "RC1206JR-07100RL" H 5800 1950 50  0001 C CNN "ManPartNr"
F 7 "YAGEO" H 5800 1950 50  0001 C CNN "Manufacturer"
F 8 "100Ω ±5% 0.25W ±100ppm/℃ 1206 Chip Resistor" H 5800 1950 50  0001 C CNN "Notes"
F 9 "0.0037" H 5800 1950 50  0001 C CNN "PriceEUR"
F 10 "500" H 5800 1950 50  0001 C CNN "PriceForQty"
	1    5800 1950
	-1   0    0    1   
$EndComp
Wire Wire Line
	5800 2100 5800 2750
$Comp
L htl_passives:R_sig R?
U 1 1 60AFAAA0
P 5700 1950
AR Path="/608DBC3C/60930C19/60930D3D/60AFAAA0" Ref="R?"  Part="1" 
AR Path="/608DBC3C/60930C19/60AFAAA0" Ref="R15"  Part="1" 
AR Path="/60CB1E03/60CBA5B1/60CBBE2B/60AFAAA0" Ref="R?"  Part="1" 
F 0 "R?" H 5500 1850 50  0000 L CNN
F 1 "100R" H 5450 1750 50  0000 L CNN
F 2 "Resistor_SMD:R_1206_3216Metric" V 5630 1950 50  0001 C CNN
F 3 "" H 5700 1950 50  0001 C CNN
F 4 "C113307" H 5700 1950 50  0001 C CNN "DistOrderNr"
F 5 "LCSC" H 5700 1950 50  0001 C CNN "Distributor"
F 6 "RC1206JR-07100RL" H 5700 1950 50  0001 C CNN "ManPartNr"
F 7 "YAGEO" H 5700 1950 50  0001 C CNN "Manufacturer"
F 8 "100Ω ±5% 0.25W ±100ppm/℃ 1206 Chip Resistor" H 5700 1950 50  0001 C CNN "Notes"
F 9 "0.0037" H 5700 1950 50  0001 C CNN "PriceEUR"
F 10 "500" H 5700 1950 50  0001 C CNN "PriceForQty"
	1    5700 1950
	1    0    0    -1  
$EndComp
Wire Wire Line
	5700 2100 5700 2650
$Comp
L htl_passives:R_sig R?
U 1 1 60AFAF43
P 6650 1950
AR Path="/608DBC3C/60930C19/60930D3D/60AFAF43" Ref="R?"  Part="1" 
AR Path="/608DBC3C/60930C19/60AFAF43" Ref="R18"  Part="1" 
AR Path="/60CB1E03/60CBA5B1/60CBBE2B/60AFAF43" Ref="R?"  Part="1" 
F 0 "R?" H 6580 1904 50  0000 R CNN
F 1 "100R" H 6580 1995 50  0000 R CNN
F 2 "Resistor_SMD:R_1206_3216Metric" V 6580 1950 50  0001 C CNN
F 3 "" H 6650 1950 50  0001 C CNN
F 4 "C113307" H 6650 1950 50  0001 C CNN "DistOrderNr"
F 5 "LCSC" H 6650 1950 50  0001 C CNN "Distributor"
F 6 "RC1206JR-07100RL" H 6650 1950 50  0001 C CNN "ManPartNr"
F 7 "YAGEO" H 6650 1950 50  0001 C CNN "Manufacturer"
F 8 "100Ω ±5% 0.25W ±100ppm/℃ 1206 Chip Resistor" H 6650 1950 50  0001 C CNN "Notes"
F 9 "0.0037" H 6650 1950 50  0001 C CNN "PriceEUR"
F 10 "500" H 6650 1950 50  0001 C CNN "PriceForQty"
	1    6650 1950
	-1   0    0    1   
$EndComp
Wire Wire Line
	6650 2100 6650 2550
Wire Wire Line
	4500 1750 4400 1750
Wire Wire Line
	4400 1750 4400 1950
$Comp
L Device:C C?
U 1 1 60B0FAED
P 3400 1600
AR Path="/608DBC6E/60B0FAED" Ref="C?"  Part="1" 
AR Path="/608DBC3C/60930C19/60B0FAED" Ref="C10"  Part="1" 
AR Path="/60CB1E03/60CBA5B1/60CBBE2B/60B0FAED" Ref="C?"  Part="1" 
F 0 "C?" H 3515 1646 50  0000 L CNN
F 1 "1u" H 3515 1555 50  0000 L CNN
F 2 "Capacitor_SMD:C_1206_3216Metric" H 3438 1450 50  0001 C CNN
F 3 "~" H 3400 1600 50  0001 C CNN
F 4 "C1848" H 3400 1600 50  0001 C CNN "DistOrderNr"
F 5 "LCSC" H 3400 1600 50  0001 C CNN "Distributor"
F 6 "CL31B105KBHNNNE" H 3400 1600 50  0001 C CNN "ManPartNr"
F 7 "Samsung" H 3400 1600 50  0001 C CNN "Manufacturer"
F 8 "1uF ±10% 50V X7R Multilayer Ceramic Capacitors MLCC" H 3400 1600 50  0001 C CNN "Notes"
F 9 "0.0225" H 3400 1600 50  0001 C CNN "PriceEUR"
F 10 "100" H 3400 1600 50  0001 C CNN "PriceForQty"
	1    3400 1600
	1    0    0    -1  
$EndComp
Wire Wire Line
	3400 1450 3400 1350
Connection ~ 3400 1350
Wire Wire Line
	3400 1350 4500 1350
$Comp
L power:GND #PWR?
U 1 1 60B1AA43
P 3400 1750
F 0 "#PWR?" H 3400 1500 50  0001 C CNN
F 1 "GND" H 3405 1577 50  0000 C CNN
F 2 "" H 3400 1750 50  0001 C CNN
F 3 "" H 3400 1750 50  0001 C CNN
	1    3400 1750
	1    0    0    -1  
$EndComp
Wire Wire Line
	6250 6700 6250 5300
Wire Wire Line
	6250 5300 7200 5300
Wire Wire Line
	1850 6100 2250 6100
Wire Wire Line
	5850 6000 5850 3950
Wire Wire Line
	6300 4200 6700 4200
Wire Wire Line
	6700 4200 6700 4450
Connection ~ 6300 4200
Wire Wire Line
	6300 4200 6300 3750
$Comp
L power:GND #PWR?
U 1 1 6097814E
P 6700 4750
F 0 "#PWR?" H 6700 4500 50  0001 C CNN
F 1 "GND" H 6705 4577 50  0000 C CNN
F 2 "" H 6700 4750 50  0001 C CNN
F 3 "" H 6700 4750 50  0001 C CNN
	1    6700 4750
	1    0    0    -1  
$EndComp
Text Notes 6450 5050 0    50   ~ 0
TODO: notwendig?
$Comp
L Device:C C?
U 1 1 6097B642
P 6700 4600
F 0 "C?" H 6815 4646 50  0000 L CNN
F 1 "10n" H 6815 4555 50  0000 L CNN
F 2 "Capacitor_SMD:C_1206_3216Metric" H 6738 4450 50  0001 C CNN
F 3 "~" H 6700 4600 50  0001 C CNN
F 4 "C525316" H 6700 4600 50  0001 C CNN "DistOrderNr"
F 5 "LCSC" H 6700 4600 50  0001 C CNN "Distributor"
F 6 "FN31X103K500PXG" H 6700 4600 50  0001 C CNN "ManPartNr"
F 7 "PSA(Prosperity Dielectrics)" H 6700 4600 50  0001 C CNN "Manufacturer"
F 8 "10nF ±10% 50V X7R  Multilayer Ceramic Capacitors MLCC" H 6700 4600 50  0001 C CNN "Notes"
F 9 "0.0106" H 6700 4600 50  0001 C CNN "PriceEUR"
F 10 "500" H 6700 4600 50  0001 C CNN "PriceForQty"
	1    6700 4600
	1    0    0    -1  
$EndComp
$EndSCHEMATC
