EESchema Schematic File Version 4
EELAYER 30 0
EELAYER END
$Descr A4 11693 8268
encoding utf-8
Sheet 3 7
Title "Lemming Robo 2"
Date "2021-07-18"
Rev "21.0.1-dev"
Comp "Team14 GesbR"
Comment1 "by Karl Zeilhofer"
Comment2 "Hosted by Prof. Karl Zeilhofer"
Comment3 ""
Comment4 ""
$EndDescr
Wire Wire Line
	4350 4150 4350 3900
$Comp
L Device:C C?
U 1 1 5F711A46
P 4650 2400
AR Path="/5F64F622/5F711A46" Ref="C?"  Part="1" 
AR Path="/5F78AFC8/5F711A46" Ref="C?"  Part="1" 
AR Path="/5F7F8851/5F7FB5B8/5F711A46" Ref="C?"  Part="1" 
AR Path="/5F8070C3/5F7FB5B8/5F711A46" Ref="C?"  Part="1" 
AR Path="/5F8AD0E2/5F7FB5B8/5F711A46" Ref="C?"  Part="1" 
AR Path="/5FA85ABF/5F7FB5B8/5F711A46" Ref="C?"  Part="1" 
AR Path="/5F8D661A/5F711A46" Ref="C?"  Part="1" 
AR Path="/60CB1E03/60CBA5B1/5F711A46" Ref="C4"  Part="1" 
F 0 "C4" V 4398 2400 50  0000 C CNN
F 1 "100n" V 4489 2400 50  0000 C CNN
F 2 "t14_standardSMD:C2012m" H 4688 2250 50  0001 C CNN
F 3 "https://datasheet.lcsc.com/szlcsc/1811151136_Walsin-Tech-Corp-0603B104K160CT_C80516.pdf" H 4650 2400 50  0001 C CNN
F 4 "LCSC" H 4650 2400 50  0001 C CNN "Distributor"
F 5 "YAGEO" H 4650 2400 50  0001 C CNN "Manufacturer"
F 6 "100nF ±10% 50V X7R 0805 Multilayer Ceramic Capacitors MLCC - SMD/SMT RoHS" H 4650 2400 50  0001 C CNN "Notes"
F 7 "" H 4650 2400 50  0001 C CNN "OrderNr"
F 8 "" H 4650 2400 50  0001 C CNN "PartNr"
F 9 "0.0054" H 4650 2400 50  0001 C CNN "PriceEUR"
F 10 "50" H 4650 2400 50  0001 C CNN "PriceForQty"
F 11 "https://lcsc.com/product-detail/Multilayer-Ceramic-Capacitors-MLCC-SMD-SMT_Walsin-Tech-Corp-0603B104K160CT_C80516.html" H 4650 2400 50  0001 C CNN "Weblink"
F 12 "C49678" H 4650 2400 50  0001 C CNN "DistOrderNr"
F 13 "CC0805KRX7R9BB104" H 4650 2400 50  0001 C CNN "ManPartNr"
	1    4650 2400
	0    1    1    0   
$EndComp
$Comp
L power:GND #PWR?
U 1 1 5F7120DC
P 4900 2400
AR Path="/5F64F622/5F7120DC" Ref="#PWR?"  Part="1" 
AR Path="/5F78AFC8/5F7120DC" Ref="#PWR?"  Part="1" 
AR Path="/5F7F8851/5F7FB5B8/5F7120DC" Ref="#PWR?"  Part="1" 
AR Path="/5F8070C3/5F7FB5B8/5F7120DC" Ref="#PWR?"  Part="1" 
AR Path="/5F8AD0E2/5F7FB5B8/5F7120DC" Ref="#PWR?"  Part="1" 
AR Path="/5FA85ABF/5F7FB5B8/5F7120DC" Ref="#PWR?"  Part="1" 
AR Path="/5F8D661A/5F7120DC" Ref="#PWR?"  Part="1" 
AR Path="/60CB1E03/60CBA5B1/5F7120DC" Ref="#PWR017"  Part="1" 
F 0 "#PWR017" H 4900 2150 50  0001 C CNN
F 1 "GND" V 4905 2272 50  0000 R CNN
F 2 "" H 4900 2400 50  0001 C CNN
F 3 "" H 4900 2400 50  0001 C CNN
	1    4900 2400
	0    -1   -1   0   
$EndComp
Wire Wire Line
	4900 2400 4800 2400
Wire Wire Line
	4500 2400 4350 2400
Connection ~ 4350 2400
Wire Wire Line
	4350 2400 4350 2700
NoConn ~ 3950 3700
$Comp
L power:GND #PWR?
U 1 1 5F764C96
P 3450 3000
AR Path="/5F64F622/5F764C96" Ref="#PWR?"  Part="1" 
AR Path="/5F78AFC8/5F764C96" Ref="#PWR?"  Part="1" 
AR Path="/5F7F8851/5F7FB5B8/5F764C96" Ref="#PWR?"  Part="1" 
AR Path="/5F8070C3/5F7FB5B8/5F764C96" Ref="#PWR?"  Part="1" 
AR Path="/5F8AD0E2/5F7FB5B8/5F764C96" Ref="#PWR?"  Part="1" 
AR Path="/5FA85ABF/5F7FB5B8/5F764C96" Ref="#PWR?"  Part="1" 
AR Path="/5F8D661A/5F764C96" Ref="#PWR?"  Part="1" 
AR Path="/60CB1E03/60CBA5B1/5F764C96" Ref="#PWR014"  Part="1" 
F 0 "#PWR014" H 3450 2750 50  0001 C CNN
F 1 "GND" H 3455 2827 50  0000 C CNN
F 2 "" H 3450 3000 50  0001 C CNN
F 3 "" H 3450 3000 50  0001 C CNN
	1    3450 3000
	0    1    1    0   
$EndComp
Text HLabel 5700 2900 2    50   Output ~ 0
TxD
Text HLabel 5050 3600 2    50   Output ~ 0
~DTR
Text HLabel 5050 3700 2    50   Output ~ 0
~RTR
Text HLabel 5700 3000 2    50   Input ~ 0
RxD
Wire Wire Line
	4750 2900 5100 2900
Wire Wire Line
	4750 3000 5100 3000
Wire Wire Line
	4750 3600 5050 3600
Wire Wire Line
	4750 3700 5050 3700
$Comp
L Device:C C?
U 1 1 5F7675CD
P 3950 2400
AR Path="/5F64F622/5F7675CD" Ref="C?"  Part="1" 
AR Path="/5F78AFC8/5F7675CD" Ref="C?"  Part="1" 
AR Path="/5F7F8851/5F7FB5B8/5F7675CD" Ref="C?"  Part="1" 
AR Path="/5F8070C3/5F7FB5B8/5F7675CD" Ref="C?"  Part="1" 
AR Path="/5F8AD0E2/5F7FB5B8/5F7675CD" Ref="C?"  Part="1" 
AR Path="/5FA85ABF/5F7FB5B8/5F7675CD" Ref="C?"  Part="1" 
AR Path="/5F8D661A/5F7675CD" Ref="C?"  Part="1" 
AR Path="/60CB1E03/60CBA5B1/5F7675CD" Ref="C3"  Part="1" 
F 0 "C3" V 3698 2400 50  0000 C CNN
F 1 "100n" V 3789 2400 50  0000 C CNN
F 2 "t14_standardSMD:C2012m" H 3988 2250 50  0001 C CNN
F 3 "https://datasheet.lcsc.com/szlcsc/1811151136_Walsin-Tech-Corp-0603B104K160CT_C80516.pdf" H 3950 2400 50  0001 C CNN
F 4 "LCSC" H 3950 2400 50  0001 C CNN "Distributor"
F 5 "YAGEO" H 3950 2400 50  0001 C CNN "Manufacturer"
F 6 "100nF ±10% 50V X7R 0805 Multilayer Ceramic Capacitors MLCC - SMD/SMT RoHS" H 3950 2400 50  0001 C CNN "Notes"
F 7 "" H 3950 2400 50  0001 C CNN "OrderNr"
F 8 "" H 3950 2400 50  0001 C CNN "PartNr"
F 9 "0.0054" H 3950 2400 50  0001 C CNN "PriceEUR"
F 10 "50" H 3950 2400 50  0001 C CNN "PriceForQty"
F 11 "https://lcsc.com/product-detail/Multilayer-Ceramic-Capacitors-MLCC-SMD-SMT_Walsin-Tech-Corp-0603B104K160CT_C80516.html" H 3950 2400 50  0001 C CNN "Weblink"
F 12 "C49678" H 3950 2400 50  0001 C CNN "DistOrderNr"
F 13 "CC0805KRX7R9BB104" H 3950 2400 50  0001 C CNN "ManPartNr"
	1    3950 2400
	0    1    1    0   
$EndComp
$Comp
L power:GND #PWR?
U 1 1 5F767C48
P 3700 2400
AR Path="/5F64F622/5F767C48" Ref="#PWR?"  Part="1" 
AR Path="/5F78AFC8/5F767C48" Ref="#PWR?"  Part="1" 
AR Path="/5F7F8851/5F7FB5B8/5F767C48" Ref="#PWR?"  Part="1" 
AR Path="/5F8070C3/5F7FB5B8/5F767C48" Ref="#PWR?"  Part="1" 
AR Path="/5F8AD0E2/5F7FB5B8/5F767C48" Ref="#PWR?"  Part="1" 
AR Path="/5FA85ABF/5F7FB5B8/5F767C48" Ref="#PWR?"  Part="1" 
AR Path="/5F8D661A/5F767C48" Ref="#PWR?"  Part="1" 
AR Path="/60CB1E03/60CBA5B1/5F767C48" Ref="#PWR015"  Part="1" 
F 0 "#PWR015" H 3700 2150 50  0001 C CNN
F 1 "GND" V 3705 2272 50  0000 R CNN
F 2 "" H 3700 2400 50  0001 C CNN
F 3 "" H 3700 2400 50  0001 C CNN
	1    3700 2400
	0    1    1    0   
$EndComp
Wire Wire Line
	3700 2400 3800 2400
Wire Wire Line
	4100 2400 4250 2400
Wire Wire Line
	4250 2400 4250 2700
Text Notes 4550 4350 0    50   ~ 0
Bemerkung 1:\nPin 15, RS232:\nWenn high, wird RxD invertiert, \num direkt die RS232-Leitungen zu kontaktieren. 
Text Notes 3400 3150 0    50   ~ 0
siehe Bem.1
Text Label 3250 3200 0    50   ~ 0
D+
Text Label 3250 3300 0    50   ~ 0
D-
$Comp
L Regulator_Linear:AMS1117-3.3 U4
U 1 1 5F92C543
P 7400 1750
F 0 "U4" H 7400 1992 50  0000 C CNN
F 1 "AMS1117-3.3" H 7400 1901 50  0000 C CNN
F 2 "Package_TO_SOT_SMD:SOT-223-3_TabPin2" H 7400 1950 50  0001 C CNN
F 3 "http://www.advanced-monolithic.com/pdf/ds1117.pdf" H 7500 1500 50  0001 C CNN
F 4 "UMW Youtai Semiconductor" H 7400 1750 50  0001 C CNN "Manufacturer"
F 5 " AMS1117-3.3 " H 7400 1750 50  0001 C CNN "ManPartNr"
F 6 "LCSC" H 7400 1750 50  0001 C CNN "Distributor"
F 7 "C347222" H 7400 1750 50  0001 C CNN "DistOrderNr"
F 8 "0.023029" H 7400 1750 50  0001 C CNN "PriceEUR"
F 9 "100" H 7400 1750 50  0001 C CNN "PriceForQty"
F 10 "https://lcsc.com/product-detail/Dropout-Regulators-LDO_UMW-Youtai-Semiconductor-Co-Ltd-AMS1117-3-3_C347222.html" H 7400 1750 50  0001 C CNN "Weblink"
F 11 "LDO, 3.3V" H 7400 1750 50  0001 C CNN "Notes"
	1    7400 1750
	1    0    0    -1  
$EndComp
Wire Wire Line
	7700 1750 7800 1750
$Comp
L Device:C C?
U 1 1 5F92C552
P 6850 2100
AR Path="/5F90221A/5F92C552" Ref="C?"  Part="1" 
AR Path="/5F8D661A/5F92C552" Ref="C?"  Part="1" 
AR Path="/60CB1E03/60CBA5B1/5F92C552" Ref="C5"  Part="1" 
F 0 "C5" H 6736 2146 50  0000 R CNN
F 1 "10u/16V/X5R" H 6736 2055 50  0000 R CNN
F 2 "t14_standardSMD:C2012m" H 6888 1950 50  0001 C CNN
F 3 "https://datasheet.lcsc.com/szlcsc/1811151151_Samsung-Electro-Mechanics-CL21A106KOQNNNE_C1713.pdf" H 6850 2100 50  0001 C CNN
F 4 "C1713" H 6850 2100 50  0001 C CNN "DistOrderNr"
F 5 "LCSC" H 6850 2100 50  0001 C CNN "Distributor"
F 6 "CL21A106KOQNNNE" H 6850 2100 50  0001 C CNN "ManPartNr"
F 7 "Samsung" H 6850 2100 50  0001 C CNN "Manufacturer"
F 8 "10uF ±10% 16V X5R" H 6850 2100 50  0001 C CNN "Notes"
F 9 "0.011386" H 6850 2100 50  0001 C CNN "PriceEUR"
F 10 "200" H 6850 2100 50  0001 C CNN "PriceForQty"
F 11 "https://lcsc.com/product-detail/Multilayer-Ceramic-Capacitors-MLCC-SMD-SMT_SAMSUNG_CL21A106KOQNNNE_10uF-106-10-16V_C1713.html" H 6850 2100 50  0001 C CNN "Weblink"
	1    6850 2100
	1    0    0    -1  
$EndComp
Wire Wire Line
	7400 2350 7400 2050
Wire Wire Line
	6850 1750 6850 1950
Connection ~ 6850 1750
Wire Wire Line
	6850 1750 7100 1750
Wire Wire Line
	6850 2350 6850 2250
$Comp
L Device:C C6
U 1 1 5F92C571
P 7800 2100
F 0 "C6" H 7915 2146 50  0000 L CNN
F 1 "10u/16V/X5R" H 7915 2055 50  0000 L CNN
F 2 "t14_standardSMD:C2012m" H 7838 1950 50  0001 C CNN
F 3 "https://datasheet.lcsc.com/szlcsc/1811151151_Samsung-Electro-Mechanics-CL21A106KOQNNNE_C1713.pdf" H 7800 2100 50  0001 C CNN
F 4 "C1713" H 7800 2100 50  0001 C CNN "DistOrderNr"
F 5 "LCSC" H 7800 2100 50  0001 C CNN "Distributor"
F 6 "CL21A106KOQNNNE" H 7800 2100 50  0001 C CNN "ManPartNr"
F 7 "Samsung" H 7800 2100 50  0001 C CNN "Manufacturer"
F 8 "10uF ±10% 16V X5R" H 7800 2100 50  0001 C CNN "Notes"
F 9 "0.011386" H 7800 2100 50  0001 C CNN "PriceEUR"
F 10 "200" H 7800 2100 50  0001 C CNN "PriceForQty"
F 11 "https://lcsc.com/product-detail/Multilayer-Ceramic-Capacitors-MLCC-SMD-SMT_SAMSUNG_CL21A106KOQNNNE_10uF-106-10-16V_C1713.html" H 7800 2100 50  0001 C CNN "Weblink"
	1    7800 2100
	1    0    0    -1  
$EndComp
Wire Wire Line
	7800 1950 7800 1750
Connection ~ 7800 1750
Wire Wire Line
	7800 2350 7800 2250
Wire Wire Line
	6550 1750 6850 1750
Wire Wire Line
	6550 1100 6550 1750
$Comp
L power:GND #PWR?
U 1 1 60590650
P 4350 4150
AR Path="/5F8674B3/60590650" Ref="#PWR?"  Part="1" 
AR Path="/5F8D661A/60590650" Ref="#PWR?"  Part="1" 
AR Path="/60CB1E03/60CBA5B1/60590650" Ref="#PWR016"  Part="1" 
F 0 "#PWR016" H 4350 3900 50  0001 C CNN
F 1 "GND" H 4354 3995 50  0000 C CNN
F 2 "" H 4350 4150 50  0001 C CNN
F 3 "" H 4350 4150 50  0001 C CNN
	1    4350 4150
	1    0    0    -1  
$EndComp
$Comp
L power:GND #PWR?
U 1 1 60591BD5
P 1850 3850
AR Path="/5F8674B3/60591BD5" Ref="#PWR?"  Part="1" 
AR Path="/5F8D661A/60591BD5" Ref="#PWR?"  Part="1" 
AR Path="/60CB1E03/60CBA5B1/60591BD5" Ref="#PWR012"  Part="1" 
F 0 "#PWR012" H 1850 3600 50  0001 C CNN
F 1 "GND" H 1854 3695 50  0000 C CNN
F 2 "" H 1850 3850 50  0001 C CNN
F 3 "" H 1850 3850 50  0001 C CNN
	1    1850 3850
	1    0    0    -1  
$EndComp
$Comp
L power:GND #PWR?
U 1 1 605932E8
P 6850 2350
AR Path="/5F8674B3/605932E8" Ref="#PWR?"  Part="1" 
AR Path="/5F8D661A/605932E8" Ref="#PWR?"  Part="1" 
AR Path="/60CB1E03/60CBA5B1/605932E8" Ref="#PWR019"  Part="1" 
F 0 "#PWR019" H 6850 2100 50  0001 C CNN
F 1 "GND" H 6854 2195 50  0000 C CNN
F 2 "" H 6850 2350 50  0001 C CNN
F 3 "" H 6850 2350 50  0001 C CNN
	1    6850 2350
	1    0    0    -1  
$EndComp
$Comp
L power:GND #PWR?
U 1 1 605939B6
P 7400 2350
AR Path="/5F8674B3/605939B6" Ref="#PWR?"  Part="1" 
AR Path="/5F8D661A/605939B6" Ref="#PWR?"  Part="1" 
AR Path="/60CB1E03/60CBA5B1/605939B6" Ref="#PWR020"  Part="1" 
F 0 "#PWR020" H 7400 2100 50  0001 C CNN
F 1 "GND" H 7404 2195 50  0000 C CNN
F 2 "" H 7400 2350 50  0001 C CNN
F 3 "" H 7400 2350 50  0001 C CNN
	1    7400 2350
	1    0    0    -1  
$EndComp
$Comp
L power:GND #PWR?
U 1 1 60594161
P 7800 2350
AR Path="/5F8674B3/60594161" Ref="#PWR?"  Part="1" 
AR Path="/5F8D661A/60594161" Ref="#PWR?"  Part="1" 
AR Path="/60CB1E03/60CBA5B1/60594161" Ref="#PWR021"  Part="1" 
F 0 "#PWR021" H 7800 2100 50  0001 C CNN
F 1 "GND" H 7804 2195 50  0000 C CNN
F 2 "" H 7800 2350 50  0001 C CNN
F 3 "" H 7800 2350 50  0001 C CNN
	1    7800 2350
	1    0    0    -1  
$EndComp
$Comp
L htl_passives:R_sig R9
U 1 1 6040C49F
P 5250 2900
F 0 "R9" V 5457 2900 50  0000 C CNN
F 1 "100R" V 5366 2900 50  0000 C CNN
F 2 "t14_standardSMD:R2012m" V 5180 2900 50  0001 C CNN
F 3 "" H 5250 2900 50  0001 C CNN
F 4 "C115424" H 5250 2900 50  0001 C CNN "DistOrderNr"
F 5 "LCSC" H 5250 2900 50  0001 C CNN "Distributor"
F 6 "RTT03101JTP" H 5250 2900 50  0001 C CNN "ManPartNr"
F 7 "RALEC" H 5250 2900 50  0001 C CNN "Manufacturer"
F 8 "100Ω ±5% 0.1W ±100ppm/℃" H 5250 2900 50  0001 C CNN "Notes"
F 9 "0.0015" H 5250 2900 50  0001 C CNN "PriceEUR"
F 10 "100" H 5250 2900 50  0001 C CNN "PriceForQty"
	1    5250 2900
	0    -1   -1   0   
$EndComp
Wire Wire Line
	5400 2900 5700 2900
$Comp
L htl_passives:R_sig R10
U 1 1 6040C811
P 5250 3000
F 0 "R10" V 5365 3000 50  0000 C CNN
F 1 "100R" V 5456 3000 50  0000 C CNN
F 2 "t14_standardSMD:R2012m" V 5180 3000 50  0001 C CNN
F 3 "" H 5250 3000 50  0001 C CNN
F 4 "C115424" H 5250 3000 50  0001 C CNN "DistOrderNr"
F 5 "LCSC" H 5250 3000 50  0001 C CNN "Distributor"
F 6 "RTT03101JTP" H 5250 3000 50  0001 C CNN "ManPartNr"
F 7 "RALEC" H 5250 3000 50  0001 C CNN "Manufacturer"
F 8 "100Ω ±5% 0.1W ±100ppm/℃" H 5250 3000 50  0001 C CNN "Notes"
F 9 "0.0015" H 5250 3000 50  0001 C CNN "PriceEUR"
F 10 "100" H 5250 3000 50  0001 C CNN "PriceForQty"
	1    5250 3000
	0    1    1    0   
$EndComp
Wire Wire Line
	5400 3000 5700 3000
Wire Wire Line
	4750 3200 4800 3200
Wire Wire Line
	4800 3200 4800 3300
Wire Wire Line
	4800 3500 4750 3500
Wire Wire Line
	4750 3400 4800 3400
Connection ~ 4800 3400
Wire Wire Line
	4800 3400 4800 3500
Wire Wire Line
	4750 3300 4800 3300
Connection ~ 4800 3300
Wire Wire Line
	4800 3300 4800 3400
$Comp
L power:GND #PWR?
U 1 1 608F62E4
P 4900 3400
AR Path="/5F8674B3/608F62E4" Ref="#PWR?"  Part="1" 
AR Path="/5F8D661A/608F62E4" Ref="#PWR?"  Part="1" 
AR Path="/60CB1E03/60CBA5B1/608F62E4" Ref="#PWR018"  Part="1" 
F 0 "#PWR018" H 4900 3150 50  0001 C CNN
F 1 "GND" H 4904 3245 50  0000 C CNN
F 2 "" H 4900 3400 50  0001 C CNN
F 3 "" H 4900 3400 50  0001 C CNN
	1    4900 3400
	0    -1   -1   0   
$EndComp
Wire Wire Line
	4900 3400 4800 3400
Text Notes 5150 3450 0    50   ~ 0
Terminate unused inputs
Text Notes 850  2250 0    50   ~ 0
Upstream facing port\n--> 5k1 pull down on CC1/2
$Comp
L Connector:USB_B X?
U 1 1 60CC7641
P 1850 3200
AR Path="/60CC7641" Ref="X?"  Part="1" 
AR Path="/608DBC3C/60930C19/60CC7641" Ref="X?"  Part="1" 
AR Path="/60CB1E03/60CBA5B1/60CBBE2B/60CC7641" Ref="X?"  Part="1" 
AR Path="/60CB1E03/60CBA5B1/60CC7641" Ref="X1"  Part="1" 
F 0 "X1" H 1907 3667 50  0000 C CNN
F 1 "USB_B" H 1907 3576 50  0000 C CNN
F 2 "htl_connectors:USB_B_Lumberg_2411_02_Horizontal" H 2000 3150 50  0001 C CNN
F 3 " ~" H 2000 3150 50  0001 C CNN
F 4 "C46392" H 1850 3200 50  0001 C CNN "DistOrderNr"
F 5 "LCSC" H 1850 3200 50  0001 C CNN "Distributor"
F 6 "921-111A1010D10200" H 1850 3200 50  0001 C CNN "ManPartNr"
F 7 "Jing Extension of the Electronic Co." H 1850 3200 50  0001 C CNN "Manufacturer"
F 8 "USB - Type B Female USB 2.0 4 Through Hole USB Connectors" H 1850 3200 50  0001 C CNN "Notes"
F 9 "0.0777" H 1850 3200 50  0001 C CNN "PriceEUR"
F 10 "5" H 1850 3200 50  0001 C CNN "PriceForQty"
	1    1850 3200
	1    0    0    -1  
$EndComp
Wire Wire Line
	2150 3200 3950 3200
Wire Wire Line
	2150 3300 3950 3300
$Comp
L htl_semiconductors:D_Schottky D?
U 1 1 60CD2399
P 2300 2000
AR Path="/60CB1E03/60CBA5B1/60CBBE2B/60CD2399" Ref="D?"  Part="1" 
AR Path="/60CB1E03/60CBA5B1/60CD2399" Ref="D1"  Part="1" 
F 0 "D1" V 2254 2078 50  0000 L CNN
F 1 "SS210" V 2345 2078 50  0000 L CNN
F 2 "Diode_SMD:D_SMA" H 2300 2000 50  0001 C CNN
F 3 "~" H 2300 2000 50  0001 C CNN
F 4 "C2683692" H 2300 2000 50  0001 C CNN "DistOrderNr"
F 5 "LCSC" H 2300 2000 50  0001 C CNN "Distributor"
F 6 "SS210A-W" H 2300 2000 50  0001 C CNN "ManPartNr"
F 7 "ZHIDE" H 2300 2000 50  0001 C CNN "Manufacturer"
F 8 "100V 2A 850mV @ 2A SMA(DO-214AC) Schottky Barrier Diodes" H 2300 2000 50  0001 C CNN "Notes"
F 9 "0.0155" H 2300 2000 50  0001 C CNN "PriceEUR"
F 10 "200" H 2300 2000 50  0001 C CNN "PriceForQty"
	1    2300 2000
	0    1    1    0   
$EndComp
Wire Wire Line
	2300 2150 2300 2400
Wire Wire Line
	2300 2400 2500 2400
Connection ~ 2300 2400
Wire Wire Line
	2300 2400 2300 3000
Text Label 2650 2400 0    50   ~ 0
VUSB
$Comp
L Device:C C?
U 1 1 60CD23AC
P 2500 2550
AR Path="/608DBC6E/60CD23AC" Ref="C?"  Part="1" 
AR Path="/608DBC3C/60930C19/60CD23AC" Ref="C?"  Part="1" 
AR Path="/60CB1E03/60CBA5B1/60CBBE2B/60CD23AC" Ref="C?"  Part="1" 
AR Path="/60CB1E03/60CBA5B1/60CD23AC" Ref="C2"  Part="1" 
F 0 "C2" H 2615 2596 50  0000 L CNN
F 1 "1u" H 2615 2505 50  0000 L CNN
F 2 "t14_standardSMD:C2012m" H 2538 2400 50  0001 C CNN
F 3 "~" H 2500 2550 50  0001 C CNN
F 4 "C28323" H 2500 2550 50  0001 C CNN "DistOrderNr"
F 5 "LCSC" H 2500 2550 50  0001 C CNN "Distributor"
F 6 "CL21B105KBFNNNE" H 2500 2550 50  0001 C CNN "ManPartNr"
F 7 "Samsung" H 2500 2550 50  0001 C CNN "Manufacturer"
F 8 "1uF ±10% 50V X7R 0805 Multilayer Ceramic Capacitors MLCC - SMD/SMT RoHS" H 2500 2550 50  0001 C CNN "Notes"
F 9 "0.0113" H 2500 2550 50  0001 C CNN "PriceEUR"
F 10 "50" H 2500 2550 50  0001 C CNN "PriceForQty"
	1    2500 2550
	1    0    0    -1  
$EndComp
$Comp
L power:GND #PWR?
U 1 1 60CD23B2
P 2500 2700
AR Path="/5F64F622/60CD23B2" Ref="#PWR?"  Part="1" 
AR Path="/5F78AFC8/60CD23B2" Ref="#PWR?"  Part="1" 
AR Path="/5F7F8851/5F7FB5B8/60CD23B2" Ref="#PWR?"  Part="1" 
AR Path="/5F8070C3/5F7FB5B8/60CD23B2" Ref="#PWR?"  Part="1" 
AR Path="/5F8AD0E2/5F7FB5B8/60CD23B2" Ref="#PWR?"  Part="1" 
AR Path="/5FA85ABF/5F7FB5B8/60CD23B2" Ref="#PWR?"  Part="1" 
AR Path="/5F8D661A/60CD23B2" Ref="#PWR?"  Part="1" 
AR Path="/608DBC3C/60930C19/60930D3D/60CD23B2" Ref="#PWR?"  Part="1" 
AR Path="/608DBC3C/60930C19/60CD23B2" Ref="#PWR?"  Part="1" 
AR Path="/60CB1E03/60CBA5B1/60CBBE2B/60CD23B2" Ref="#PWR?"  Part="1" 
AR Path="/60CB1E03/60CBA5B1/60CD23B2" Ref="#PWR013"  Part="1" 
F 0 "#PWR013" H 2500 2450 50  0001 C CNN
F 1 "GND" H 2505 2527 50  0000 C CNN
F 2 "" H 2500 2700 50  0001 C CNN
F 3 "" H 2500 2700 50  0001 C CNN
	1    2500 2700
	1    0    0    -1  
$EndComp
Connection ~ 2500 2400
Wire Wire Line
	2500 2400 2650 2400
Text HLabel 1250 2400 0    50   Output ~ 0
VUSB
Wire Wire Line
	1250 2400 2300 2400
Wire Wire Line
	2300 1100 2300 1850
Wire Wire Line
	2150 3000 2300 3000
Text HLabel 1250 1100 0    50   Input ~ 0
5V
Wire Wire Line
	1250 1100 2300 1100
Connection ~ 2300 1100
Wire Wire Line
	1850 3600 1850 3650
Wire Wire Line
	1750 3600 1750 3650
Wire Wire Line
	1750 3650 1850 3650
Connection ~ 1850 3650
Text HLabel 8200 1750 2    50   Output ~ 0
3V3
Wire Wire Line
	7800 1750 7950 1750
Wire Wire Line
	3450 3000 3950 3000
Text Label 8200 1450 0    50   ~ 0
3V3
Wire Wire Line
	8200 1450 7950 1450
Wire Wire Line
	7950 1450 7950 1750
Connection ~ 7950 1750
Wire Wire Line
	7950 1750 8200 1750
Text Label 4000 1650 0    50   ~ 0
3V3
Wire Wire Line
	4000 1650 4350 1650
Wire Wire Line
	4350 1650 4350 2400
Wire Wire Line
	1850 3650 1850 3850
Wire Wire Line
	2300 1100 6550 1100
$Comp
L htl_ics:CH340B U3
U 1 1 60F8F4A0
P 4350 3300
F 0 "U3" H 4350 2611 50  0000 C CNN
F 1 "CH340B" H 4350 2520 50  0000 C CNN
F 2 "Package_SO:SOIC-16_3.9x9.9mm_P1.27mm" H 4400 2750 50  0001 L CNN
F 3 "https://www.mpja.com/download/35227cpdata.pdf" H 4000 4100 50  0001 C CNN
F 4 "C81010" H 4350 3300 50  0001 C CNN "DistOrderNr"
	1    4350 3300
	1    0    0    -1  
$EndComp
NoConn ~ 3950 3600
Text Notes 3500 4650 0    70   ~ 0
CH340B und CH340C möglich (pinkompatibel)
$EndSCHEMATC
